//Maya ASCII 2023 scene
//Name: block3.ma
//Last modified: Sat, Feb 04, 2023 11:13:07 AM
//Codeset: UTF-8
requires maya "2023";
requires -nodeType "aiOptions" -nodeType "aiAOVDriver" -nodeType "aiAOVFilter" "mtoa" "5.2.1.1";
currentUnit -l centimeter -a degree -t film;
fileInfo "application" "maya";
fileInfo "product" "Maya 2023";
fileInfo "version" "2023";
fileInfo "cutIdentifier" "202211021031-847a9f9623";
fileInfo "osv" "Mac OS X 10.16";
fileInfo "UUID" "AC24B606-174F-ED03-45B4-E09B8B990F94";
createNode transform -s -n "persp";
	rename -uid "057EC301-104D-5D1C-6008-3A9DAD010FF6";
	setAttr ".v" no;
	setAttr ".t" -type "double3" 0.76740243219348958 17.716492454392295 3.9754455100107351 ;
	setAttr ".r" -type "double3" -80.738352729589877 -4.6000000000121153 1.5954163707749447e-15 ;
createNode camera -s -n "perspShape" -p "persp";
	rename -uid "296997AA-6C42-8799-F220-F4AB28005D6B";
	setAttr -k off ".v" no;
	setAttr ".fl" 34.999999999999986;
	setAttr ".coi" 17.992782890269929;
	setAttr ".imn" -type "string" "persp";
	setAttr ".den" -type "string" "persp_depth";
	setAttr ".man" -type "string" "persp_mask";
	setAttr ".hc" -type "string" "viewSet -p %camera";
createNode transform -s -n "top";
	rename -uid "62CC3003-1D43-CA9D-B658-6D8CC5766878";
	setAttr ".v" no;
	setAttr ".t" -type "double3" 0 1000.1 0 ;
	setAttr ".r" -type "double3" -89.999999999999986 0 0 ;
createNode camera -s -n "topShape" -p "top";
	rename -uid "BCA9D5E7-E942-C143-1BB5-148AE3C5475F";
	setAttr -k off ".v" no;
	setAttr ".rnd" no;
	setAttr ".coi" 1000.1;
	setAttr ".ow" 30;
	setAttr ".imn" -type "string" "top";
	setAttr ".den" -type "string" "top_depth";
	setAttr ".man" -type "string" "top_mask";
	setAttr ".hc" -type "string" "viewSet -t %camera";
	setAttr ".o" yes;
	setAttr ".ai_translator" -type "string" "orthographic";
createNode transform -s -n "front";
	rename -uid "CB8BAF4B-6F4A-5F6C-F63D-7292B640A46E";
	setAttr ".v" no;
	setAttr ".t" -type "double3" 0 0 1000.1 ;
createNode camera -s -n "frontShape" -p "front";
	rename -uid "CC11333A-F147-0242-74D6-1290C5B6C16C";
	setAttr -k off ".v" no;
	setAttr ".rnd" no;
	setAttr ".coi" 1000.1;
	setAttr ".ow" 30;
	setAttr ".imn" -type "string" "front";
	setAttr ".den" -type "string" "front_depth";
	setAttr ".man" -type "string" "front_mask";
	setAttr ".hc" -type "string" "viewSet -f %camera";
	setAttr ".o" yes;
	setAttr ".ai_translator" -type "string" "orthographic";
createNode transform -s -n "side";
	rename -uid "80BE7570-BC4A-62BB-A97F-1E86593EBBBC";
	setAttr ".v" no;
	setAttr ".t" -type "double3" 1000.1 0 0 ;
	setAttr ".r" -type "double3" 0 89.999999999999986 0 ;
createNode camera -s -n "sideShape" -p "side";
	rename -uid "6718F007-3B4F-D01D-DBB5-FDABF881CD23";
	setAttr -k off ".v" no;
	setAttr ".rnd" no;
	setAttr ".coi" 1000.1;
	setAttr ".ow" 30;
	setAttr ".imn" -type "string" "side";
	setAttr ".den" -type "string" "side_depth";
	setAttr ".man" -type "string" "side_mask";
	setAttr ".hc" -type "string" "viewSet -s %camera";
	setAttr ".o" yes;
	setAttr ".ai_translator" -type "string" "orthographic";
createNode transform -n "polySurface1";
	rename -uid "1F4677A3-5646-24DF-B437-B18983C1EAAE";
createNode mesh -n "polySurfaceShape1" -p "polySurface1";
	rename -uid "C8D72E6F-5246-20E9-2F32-E9B21C01BB35";
	setAttr -k off ".v";
	setAttr ".iog[0].og[0].gcl" -type "componentList" 1 "f[0:207]";
	setAttr ".vir" yes;
	setAttr ".vif" yes;
	setAttr -s 15 ".gtag";
	setAttr ".gtag[0].gtagnm" -type "string" "back";
	setAttr ".gtag[0].gtagcmp" -type "componentList" 10 "f[111]" "f[126]" "f[139]" "f[147]" "f[154]" "f[162]" "f[168]" "f[180]" "f[187]" "f[192]";
	setAttr ".gtag[1].gtagnm" -type "string" "booleanIntersection";
	setAttr ".gtag[1].gtagcmp" -type "componentList" 55 "e[20]" "e[25]" "e[58]" "e[61]" "e[65]" "e[68]" "e[71:72]" "e[76:77]" "e[79:80]" "e[90:91]" "e[104]" "e[107]" "e[131]" "e[134:138]" "e[140]" "e[162:163]" "e[165:166]" "e[171:172]" "e[174:175]" "e[178:181]" "e[184:185]" "e[187:190]" "e[197]" "e[217:218]" "e[222:223]" "e[230:231]" "e[233:234]" "e[236]" "e[238:252]" "e[263]" "e[286]" "e[289]" "e[292]" "e[295:296]" "e[300]" "e[303:304]" "e[314:315]" "e[328]" "e[331]" "e[355]" "e[358]" "e[360]" "e[381:382]" "e[385:386]" "e[391:393]" "e[397:400]" "e[402:403]" "e[406:409]" "e[416]" "e[435:436]" "e[441:442]" "e[448:449]" "e[452:453]" "e[455]" "e[457:471]";
	setAttr ".gtag[2].gtagnm" -type "string" "bottom";
	setAttr ".gtag[2].gtagcmp" -type "componentList" 43 "f[8:11]" "f[16]" "f[18]" "f[20]" "f[24:28]" "f[36]" "f[38:39]" "f[44:45]" "f[48]" "f[53:54]" "f[59]" "f[61]" "f[66:68]" "f[72]" "f[77:78]" "f[81]" "f[85]" "f[89]" "f[91]" "f[95]" "f[100]" "f[104:109]" "f[116:119]" "f[121]" "f[123]" "f[127]" "f[133:137]" "f[141]" "f[144:145]" "f[150:151]" "f[156]" "f[159:160]" "f[164]" "f[166]" "f[173:175]" "f[177]" "f[183:184]" "f[188]" "f[190]" "f[194]" "f[196]" "f[200]" "f[205]";
	setAttr ".gtag[3].gtagnm" -type "string" "bottomRing";
	setAttr ".gtag[3].gtagcmp" -type "componentList" 0;
	setAttr ".gtag[4].gtagnm" -type "string" "cylBottomCap";
	setAttr ".gtag[4].gtagcmp" -type "componentList" 0;
	setAttr ".gtag[5].gtagnm" -type "string" "cylBottomRing";
	setAttr ".gtag[5].gtagcmp" -type "componentList" 0;
	setAttr ".gtag[6].gtagnm" -type "string" "cylSides";
	setAttr ".gtag[6].gtagcmp" -type "componentList" 0;
	setAttr ".gtag[7].gtagnm" -type "string" "cylTopCap";
	setAttr ".gtag[7].gtagcmp" -type "componentList" 0;
	setAttr ".gtag[8].gtagnm" -type "string" "cylTopRing";
	setAttr ".gtag[8].gtagcmp" -type "componentList" 0;
	setAttr ".gtag[9].gtagnm" -type "string" "front";
	setAttr ".gtag[9].gtagcmp" -type "componentList" 10 "f[7]" "f[22]" "f[35]" "f[43]" "f[50]" "f[58]" "f[64]" "f[76]" "f[83]" "f[88]";
	setAttr ".gtag[10].gtagnm" -type "string" "left";
	setAttr ".gtag[10].gtagcmp" -type "componentList" 10 "f[110]" "f[125]" "f[138]" "f[146]" "f[153]" "f[161]" "f[167]" "f[179]" "f[186]" "f[191]";
	setAttr ".gtag[11].gtagnm" -type "string" "right";
	setAttr ".gtag[11].gtagcmp" -type "componentList" 10 "f[6]" "f[21]" "f[34]" "f[42]" "f[49]" "f[57]" "f[63]" "f[75]" "f[82]" "f[87]";
	setAttr ".gtag[12].gtagnm" -type "string" "sides";
	setAttr ".gtag[12].gtagcmp" -type "componentList" 12 "f[51]" "f[65]" "f[74]" "f[93:94]" "f[97:99]" "f[102:103]" "f[155]" "f[169]" "f[178]" "f[197:198]" "f[201:203]" "f[206:207]";
	setAttr ".gtag[13].gtagnm" -type "string" "top";
	setAttr ".gtag[13].gtagcmp" -type "componentList" 43 "f[0:5]" "f[12:15]" "f[17]" "f[19]" "f[23]" "f[29:33]" "f[37]" "f[40:41]" "f[46:47]" "f[52]" "f[55:56]" "f[60]" "f[62]" "f[69:71]" "f[73]" "f[79:80]" "f[84]" "f[86]" "f[90]" "f[92]" "f[96]" "f[101]" "f[112:115]" "f[120]" "f[122]" "f[124]" "f[128:132]" "f[140]" "f[142:143]" "f[148:149]" "f[152]" "f[157:158]" "f[163]" "f[165]" "f[170:172]" "f[176]" "f[181:182]" "f[185]" "f[189]" "f[193]" "f[195]" "f[199]" "f[204]";
	setAttr ".gtag[14].gtagnm" -type "string" "topRing";
	setAttr ".gtag[14].gtagcmp" -type "componentList" 0;
	setAttr ".uvst[0].uvsn" -type "string" "map1";
	setAttr -s 421 ".uvst[0].uvsp";
	setAttr ".uvst[0].uvsp[0:249]" -type "float2" 0.5999999 0.47500005 0.62499988
		 0.47500005 0.62499988 0.50000006 0.5999999 0.50000006 0.375 0.25 0.40000001 0.25
		 0.40000001 0.27500001 0.375 0.27500001 0.42500001 0.27500001 0.42500001 0.30000001
		 0.40000001 0.30000001 0.57499993 0.45000005 0.5999999 0.45000005 0.57499993 0.47500005
		 0.44926628 0.32500002 0.42500001 0.32500002 0.45000002 0.30000001 0.45000002 0.3243345
		 0.55073369 0.42500001 0.57499993 0.42500004 0.54999995 0.45000005 0.54999995 0.42566562
		 0.85000002 0 0.875 0 0.875 0.25 0.85000002 0.25 0.375 0 0.40000001 0 0.5999999 0.77500004
		 0.62499988 0.77500004 0.62499988 0.80000001 0.5999999 0.80000001 0.57499993 0.80000001
		 0.5999999 0.82499999 0.57499993 0.82499999 0.42500001 0.94999987 0.45000002 0.94999987
		 0.45000002 0.97499985 0.42500001 0.97499985 0.40000001 0.97499985 0.42500001 0.99999982
		 0.40000001 0.99999982 0.62499988 0.45000005 0.45000002 0.27500001 0.5999999 0.42500004
		 0.42500001 0.25 0.57027042 0.84999996 0.57499993 0.84999996 0.57499993 0.85624939
		 0.57499993 0.39375061 0.57499993 0.40000004 0.57027042 0.40000004 0.47500002 0.94834179
		 0.47500002 0.94999987 0.44999999 0.92566538 0.47500002 0.30000001 0.47499999 0.30165809
		 0.55073369 0.82499999 0.55270195 0.82678521 0.82500005 0 0.82500005 0.25 0.42500001
		 0 0.55270189 0.42321476 0.47770524 0.94999987 0.47514194 0.94847053 0.62499988 0.82499999
		 0.47500002 0.97499985 0.5999999 0.84999996 0.45000002 0.99999982 0.47770524 0.30000001
		 0.47514194 0.30152935 0.62499988 0.42500004 0.47500002 0.27500001 0.45000002 0.25
		 0.5999999 0.40000004 0.80000007 0 0.80000007 0.25 0.45000002 0 0.53307825 0.97499985
		 0.52499998 0.97499985 0.52499998 0.97252744 0.52499998 0.27747238 0.52499998 0.27500001
		 0.53307825 0.27500001 0.62499988 0.84999996 0.47500002 0.99999982 0.62499988 0.40000004
		 0.47500002 0.25 0.7750001 0 0.7750001 0.25 0.47500002 0 0.62499988 0.87499994 0.5999999
		 0.87499994 0.5 0.97499985 0.5 0.99999982 0.5999999 0.37500003 0.62499988 0.37500003
		 0.5 0.25 0.5 0.27500001 0.5 0.96330154 0.75000012 0 0.75000012 0.25 0.5 0 0.56249982
		 0.49062499 0.56243616 0.49062499 0.55121285 0.49062502 0.55088341 0.49062502 0.54999983
		 0.49062499 0.54999983 0.50937498 0.55088341 0.50937498 0.55121279 0.50937498 0.5624361
		 0.50937504 0.56249982 0.50937498 0.5 0.2866984 0.62499988 0.89999992 0.5999999 0.89999992
		 0.52499998 0.99999982 0.5999999 0.35000002 0.62499988 0.35000002 0.52499998 0.25
		 0.72500014 0 0.72500014 0.25 0.52499998 0 0.62499988 0.92499989 0.5999999 0.92499989
		 0.5999999 0.32500002 0.62499988 0.32500002 0.58417642 0.87499988 0.575387 0.85676086
		 0.58417642 0.37500003 0.57538694 0.3932392 0.70000017 0 0.70000017 0.25 0.54999995
		 0 0.54999995 0.25 0.42499995 0.49062499 0.41531929 0.49062499 0.41271323 0.49062502
		 0.41249996 0.49062499 0.41249996 0.50937498 0.41271323 0.50937498 0.41531926 0.50937498
		 0.42499995 0.50937498 0.59311658 0.89999992 0.59069258 0.88852167 0.57499993 0.96787214
		 0.57499993 0.97499985 0.55765784 0.97499979 0.56147015 0.97489154 0.50541902 0.96653473
		 0.55765766 0.27500001 0.57499993 0.27500001 0.57499993 0.28212771 0.56147009 0.27510828
		 0.59311664 0.35000002 0.59069252 0.36147827 0.50541908 0.28346524 0.62499988 0.94999987
		 0.5999999 0.94999987 0.5999999 0.30000001 0.62499988 0.30000001 0.40532169 0.49062502
		 0.39999998 0.49062499 0.39999998 0.50937498 0.40532169 0.50937498 0.67500019 0 0.67500019
		 0.25 0.57499993 0 0.57499993 0.25 0.62499988 0.97499985 0.5999999 0.97499985 0.5999999
		 0.99999982 0.57499993 0.99999982 0.5999999 0.27500001 0.62499988 0.27500001 0.5999999
		 0.25 0.5964089 0.92499989 0.59712058 0.91895902 0.65000021 0 0.65000021 0.25 0.5999999
		 0 0.5964089 0.32500002 0.59712052 0.33104092 0.62499988 0.99999982 0.62499988 0.25
		 0.62499988 0 0.59091437 0.94999993 0.59404171 0.94509327 0.59091431 0.30000001 0.59404171
		 0.30490658 0.54999995 0.99999982 0.54999995 0.97521734 0.54999995 0.27478251 0.39528608
		 0.49062499 0.38749999 0.49062499 0.38749999 0.50937498 0.39528611 0.50937498 0.57499981
		 0.49062499 0.57276255 0.49062499 0.5635581 0.49062502 0.5635581 0.50937498 0.57276249
		 0.50937504 0.57499981 0.50937498 0.53516567 0.97563875 0.53516567 0.27436113 0.38461062
		 0.49062499 0.375 0.49062499 0.375 0.50937498 0.38461065 0.50937498 0.61249977 0.49062499
		 0.60833615 0.49062499 0.59999979 0.49062499 0.59999979 0.50937498 0.60833615 0.50937498
		 0.61249977 0.50937498 0.62499976 0.49062499 0.62181753 0.49062499 0.62181747 0.50937498
		 0.62499976 0.50937498 0.58175743 0.96436632 0.58175737 0.28563356 0.58749974 0.49062499
		 0.5866226 0.49062499 0.58322799 0.49062499 0.58322799 0.50937498 0.5866226 0.50937498
		 0.58749974 0.50937498 0.59818816 0.49062499 0.59454918 0.49062496 0.59454918 0.50937498
		 0.59818816 0.50937498 0.375 0.97499985 0.375 0.99999982 0.57499993 0.77500004 0.40000001
		 0.94999987 0.5999999 0.75000006 0.62499988 0.75000006 0.54999995 0.82433444 0.54999995
		 0.80000001 0.42500001 0.92499989 0.44926631 0.92499989 0.35000005 0 0.35000005 0.25
		 0.40000001 0.32500002 0.54999995 0.47500005 0.375 0.30000001 0.57499993 0.50000006
		 0.54999995 0.77500004 0.40000001 0.92499989 0.375 0.94999987;
	setAttr ".uvst[0].uvsp[250:420]" 0.57499993 0.75000006 0.42500001 0.35624951
		 0.42500001 0.35000002 0.42972952 0.35000005 0.42972955 0.89999992 0.42500001 0.89999992
		 0.42500001 0.89375043 0.52499998 0.45000005 0.52499998 0.44834203 0.52499998 0.80165803
		 0.52499998 0.80000001 0.44729805 0.3267853 0.32500005 0 0.32500005 0.25 0.44729808
		 0.92321461 0.52229482 0.45000005 0.52485806 0.44847074 0.40000001 0.35000002 0.375
		 0.32500002 0.52499998 0.47500005 0.54999995 0.50000006 0.52229482 0.79999995 0.52485806
		 0.80152935 0.52499998 0.77500004 0.40000001 0.89999992 0.375 0.92499989 0.54999995
		 0.75000006 0.30000004 0 0.30000004 0.25 0.47500002 0.47252768 0.47500002 0.47500005
		 0.46692181 0.47500005 0.46692181 0.77500004 0.47500002 0.77500004 0.47500002 0.77747238
		 0.375 0.35000002 0.52499998 0.50000006 0.375 0.89999992 0.52499998 0.75000006 0.27500004
		 0 0.27500004 0.25 0.40000001 0.37500003 0.375 0.37500003 0.5 0.47500005 0.5 0.50000006
		 0.5 0.75000006 0.5 0.77500004 0.375 0.87499994 0.40000001 0.87499994 0.5 0.46330172
		 0.25000003 0 0.25000003 0.25 0.43749994 0.49062499 0.43743622 0.49062499 0.42621297
		 0.49062502 0.42588353 0.49062502 0.42588353 0.50937504 0.42621297 0.50937498 0.43743622
		 0.50937504 0.43749994 0.50937498 0.5 0.78669834 0.40000001 0.40000004 0.375 0.40000004
		 0.47500002 0.50000006 0.375 0.84999996 0.40000001 0.84999996 0.47500002 0.75000006
		 0.22500002 0 0.22500002 0.25 0.40000001 0.42500004 0.375 0.42500004 0.375 0.82499999
		 0.40000001 0.82499999 0.42461303 0.35676086 0.41582358 0.375 0.41582358 0.87499994
		 0.424613 0.89323908 0.20000002 0 0.20000002 0.25 0.45000002 0.50000006 0.45000002
		 0.75000006 0.54031914 0.49062502 0.53771305 0.49062499 0.53749979 0.49062499 0.53749979
		 0.50937498 0.53771305 0.50937504 0.5403192 0.50937498 0.40930739 0.38852179 0.40688333
		 0.40000001 0.44234145 0.47500005 0.42500001 0.47500005 0.42500001 0.46787238 0.43852985
		 0.47489178 0.49458098 0.46653491 0.42500001 0.77500004 0.44234166 0.7750001 0.43852985
		 0.77510834 0.42500001 0.78212774 0.40688333 0.8499999 0.40930739 0.86147815 0.49458095
		 0.78346515 0.40000001 0.45000005 0.375 0.45000005 0.375 0.80000001 0.40000001 0.80000001
		 0.53032154 0.49062496 0.52499986 0.49062499 0.52499986 0.50937498 0.53032154 0.50937498
		 0.17500001 0 0.17500001 0.25 0.42500001 0.50000006 0.42500001 0.75000006 0.40000001
		 0.47500005 0.375 0.47500005 0.40000001 0.50000006 0.375 0.77500004 0.40000001 0.77500004
		 0.40000001 0.75000006 0.40287942 0.41895914 0.40359107 0.42500007 0.15000001 0 0.15000001
		 0.25 0.40359107 0.82499999 0.40287939 0.83104092 0.375 0.50000006 0.375 0.75000006
		 0.125 0 0.125 0.25 0.40595824 0.44509348 0.4090856 0.45000005 0.40908563 0.80000007
		 0.40595821 0.80490661 0.45000002 0.47521758 0.45000002 0.77478248 0.52028602 0.49062499
		 0.51249987 0.49062499 0.51249987 0.50937498 0.52028602 0.50937498 0.44999993 0.49062499
		 0.44776267 0.49062499 0.43855822 0.49062502 0.43855816 0.50937498 0.44776267 0.50937498
		 0.44999993 0.50937498 0.4648343 0.47563893 0.46483427 0.77436113 0.50961053 0.49062502
		 0.49999988 0.49062499 0.49999988 0.50937498 0.50961047 0.50937498 0.48749989 0.49062499
		 0.4833363 0.49062499 0.4749999 0.49062499 0.4749999 0.50937498 0.48333627 0.50937498
		 0.48749989 0.50937498 0.49681759 0.49062502 0.49681759 0.50937498 0.41824254 0.4643665
		 0.41824254 0.78563356 0.46249992 0.49062499 0.46162271 0.49062502 0.45822811 0.49062499
		 0.45822814 0.50937498 0.46162271 0.50937504 0.46249992 0.50937498 0.47318852 0.49062502
		 0.46954927 0.49062499 0.46954927 0.50937498 0.47318861 0.50937498;
	setAttr ".cuvs" -type "string" "map1";
	setAttr ".dcc" -type "string" "Ambient+Diffuse";
	setAttr ".covm[0]"  0 1 1;
	setAttr ".cdvm[0]"  0 1 1;
	setAttr -s 264 ".vt";
	setAttr ".vt[0:165]"  3.99999976 0.050000001 -3.99999976 4.99999952 0.050000001 -3.99999976
		 4.99999952 0.050000001 -5 3.99999976 0.050000001 -5 -5 0.050000001 5 -4 0.050000001 5
		 -4 0.050000001 4 -5 0.050000001 4 -3 0.050000001 4 -3 0.050000001 3 -4 0.050000001 3
		 2.99999976 0.050000001 -2.99999976 3.99999976 0.050000001 -2.99999976 2.99999976 0.050000001 -3.99999976
		 -2.029348612 0.050000001 2.000000238419 -3 0.050000001 2.000000238419 -2.000000238419 0.050000001 3
		 -2.000000238419 0.050000001 2.026620865 2.029350519 0.050000001 -1.99999988 2.99999976 0.050000001 -1.99999988
		 1.99999988 0.050000001 -2.99999976 1.99999988 0.050000001 -2.026622534 4.99999952 -0.050000001 -4
		 4.99999952 -0.050000001 -5 -5 -0.050000001 5 -4 -0.050000001 5 3.99999976 -0.050000001 -4
		 4.99999952 -0.050000001 -3 3.99999976 -0.050000001 -3 2.99999976 -0.050000001 -3
		 3.99999976 -0.050000001 -2.000000238419 2.99999976 -0.050000001 -2.000000238419 -3 -0.050000001 2.99999976
		 -2.000000238419 -0.050000001 2.99999976 -2.000000238419 -0.050000001 3.99999976 -3 -0.050000001 3.99999976
		 -4 -0.050000001 3.99999976 -3 -0.050000001 5 4.99999952 0.050000001 -2.99999976 -2.000000238419 0.050000001 4
		 3.99999976 0.050000001 -1.99999988 -3 0.050000001 5 2.81082034 -0.050000001 -1.000000119209
		 2.99999976 -0.050000001 -1.000000119209 2.99999976 -0.050000001 -0.75002223 2.99999976 0.050000001 -0.75002223
		 2.99999976 0.050000001 -0.99999988 2.81082058 0.050000001 -0.99999988 -1.000000119209 -0.050000001 2.93367743
		 -1.000000119209 -0.050000001 2.99999976 -2.000000238419 -0.050000001 2.026620865
		 -1.000000119209 0.050000001 3 -1.000000119209 0.050000001 2.93367743 2.029350281 -0.050000001 -2.000000238419
		 2.10807872 -0.050000001 -1.92858899 2.10807872 0.050000001 -1.92858899 -0.89179134 -0.050000001 2.99999976
		 -0.99432361 -0.050000001 2.93882632 4.99999952 -0.050000001 -2.000000238419 -1.000000119209 -0.050000001 3.99999976
		 3.99999976 -0.050000001 -1.000000119209 -2.000000238419 -0.050000001 5 -0.89179093 0.050000001 3
		 -0.99432361 0.050000001 2.93882632 4.99999952 0.050000001 -1.99999988 -1.000000119209 0.050000001 4
		 -2.000000238419 0.050000001 5 3.99999976 0.050000001 -0.99999988 1.32313132 -0.050000001 3.99999976
		 0.99999988 -0.050000001 3.99999976 0.99999988 -0.050000001 3.90110421 0.99999988 0.050000001 3.90110421
		 0.99999988 0.050000001 4 1.32313216 0.050000001 4 4.99999952 -0.050000001 -1.000000119209
		 -1.000000119209 -0.050000001 5 4.99999952 0.050000001 -0.99999988 -1.000000119209 0.050000001 5
		 4.99999952 -0.050000001 -1.4901161e-07 3.99999976 -0.050000001 -1.4901161e-07 -1.4901161e-07 -0.050000001 3.99999976
		 -1.4901161e-07 -0.050000001 5 3.99999976 0.050000001 1.4901161e-07 4.99999952 0.050000001 1.4901161e-07
		 -1.4901161e-07 0.050000001 5 -1.4901161e-07 0.050000001 4 -1.4901161e-07 -0.050000001 3.53206587
		 -2.02934885 -0.050000001 1.99999988 -2.108078 -0.050000001 1.92858815 -2.108078 0.050000001 1.92858815
		 -1.4901161e-07 0.050000001 3.53206587 4.99999952 -0.050000001 0.99999988 3.99999976 -0.050000001 0.99999988
		 0.99999988 -0.050000001 5 3.99999976 0.050000001 1.000000119209 4.99999952 0.050000001 1.000000119209
		 0.99999988 0.050000001 5 4.99999952 -0.050000001 1.99999988 3.99999976 -0.050000001 1.99999988
		 3.99999976 0.050000001 2.000000238419 4.99999952 0.050000001 2.000000238419 3.36705923 -0.050000001 -1.4901161e-07
		 3.01548028 -0.050000001 -0.72956657 3.36705947 0.050000001 1.4901161e-07 3.01548028 0.050000001 -0.72956657
		 1.99999988 -0.050000001 5 1.99999988 0.050000001 5 3.7246685 -0.050000001 0.99999988
		 3.62770581 -0.050000001 0.5408709 2.99999976 -0.050000001 3.71489143 2.99999976 -0.050000001 3.99999976
		 2.30631685 -0.050000001 3.99999976 2.45880651 -0.050000001 3.99566841 0.21676195 -0.050000001 3.66139174
		 2.30630827 0.050000001 4 2.99999976 0.050000001 4 2.99999976 0.050000001 3.71489143
		 2.45880651 0.050000001 3.99566841 3.7246685 0.050000001 1.000000119209 3.62770581 0.050000001 0.5408709
		 0.21676195 0.050000001 3.66139174 4.99999952 -0.050000001 2.99999976 3.99999976 -0.050000001 2.99999976
		 3.99999976 0.050000001 3 4.99999952 0.050000001 3 2.99999976 -0.050000001 5 2.99999976 0.050000001 5
		 4.99999952 -0.050000001 3.99999976 3.99999976 -0.050000001 3.99999976 3.99999976 -0.050000001 5
		 3.99999976 0.050000001 4 4.99999952 0.050000001 4 3.99999976 0.050000001 5 3.85635948 -0.050000001 1.99999988
		 3.88482618 -0.050000001 1.75836456 3.85635948 0.050000001 2.000000238419 3.88482618 0.050000001 1.75836456
		 4.99999952 -0.050000001 5 4.99999952 0.050000001 5 3.63657737 -0.050000001 2.99999976
		 3.7616725 -0.050000001 2.80373716 3.63657713 0.050000001 3 3.7616725 0.050000001 2.80373716
		 1.99999988 -0.050000001 4.0087003708 1.99999988 0.050000001 4.0087003708 1.40662956 -0.050000001 4.025554657
		 1.40662956 0.050000001 4.025554657 3.270298 -0.050000001 3.57465792 3.270298 0.050000001 3.57465792
		 -5 -0.050000001 3.99999976 2.99999976 -0.050000001 -4 -4 -0.050000001 2.99999976
		 3.99999976 -0.050000001 -5 1.99999988 -0.050000001 -2.026622534 1.99999988 -0.050000001 -3
		 -3 -0.050000001 1.99999988 -4 0.050000001 2.000000238419 1.99999988 0.050000001 -3.99999976
		 -5 0.050000001 3 2.99999976 0.050000001 -5 1.99999988 -0.050000001 -4 -4 -0.050000001 1.99999988
		 -5 -0.050000001 2.99999976 2.99999976 -0.050000001 -5 -3 0.050000001 0.75002027 -3 0.050000001 1.000000119209;
	setAttr ".vt[166:263]" -2.81081915 0.050000001 1.000000119209 -2.81081939 -0.050000001 0.99999988
		 -3 -0.050000001 0.99999988 -3 -0.050000001 0.75002027 0.99999988 0.050000001 -2.99999976
		 0.99999988 0.050000001 -2.9336791 0.99999988 -0.050000001 -2.9336791 0.99999988 -0.050000001 -3
		 0.89179367 0.050000001 -2.99999976 0.99432397 0.050000001 -2.93882751 -4 0.050000001 1.000000119209
		 -5 0.050000001 2.000000238419 0.99999988 0.050000001 -3.99999976 1.99999988 0.050000001 -5
		 0.89179325 -0.050000001 -3 0.99432397 -0.050000001 -2.93882751 0.99999988 -0.050000001 -4
		 -4 -0.050000001 0.99999988 -5 -0.050000001 1.99999988 1.99999988 -0.050000001 -5
		 -1.000000119209 0.050000001 -3.9011054 -1.000000119209 0.050000001 -3.99999976 -1.32312858 0.050000001 -3.99999976
		 -1.32312942 -0.050000001 -4 -1.000000119209 -0.050000001 -4 -1.000000119209 -0.050000001 -3.9011054
		 -5 0.050000001 1.000000119209 0.99999988 0.050000001 -5 -5 -0.050000001 0.99999988
		 0.99999988 -0.050000001 -5 -4 0.050000001 1.4901161e-07 -5 0.050000001 1.4901161e-07
		 -1.4901161e-07 0.050000001 -3.99999976 -1.4901161e-07 0.050000001 -5 -1.4901161e-07 -0.050000001 -5
		 -1.4901161e-07 -0.050000001 -4 -5 -0.050000001 -1.4901161e-07 -4 -0.050000001 -1.4901161e-07
		 -1.4901161e-07 0.050000001 -3.5320673 -1.4901161e-07 -0.050000001 -3.5320673 -4 0.050000001 -0.99999988
		 -5 0.050000001 -0.99999988 -1.000000119209 0.050000001 -5 -5 -0.050000001 -1.000000119209
		 -4 -0.050000001 -1.000000119209 -1.000000119209 -0.050000001 -5 -4 0.050000001 -1.99999988
		 -5 0.050000001 -1.99999988 -5 -0.050000001 -2.000000238419 -4 -0.050000001 -2.000000238419
		 -3.015479326 0.050000001 0.72956622 -3.36705804 0.050000001 1.4901161e-07 -3.36705828 -0.050000001 -1.4901161e-07
		 -3.015479326 -0.050000001 0.72956622 -2.000000238419 0.050000001 -5 -2.000000238419 -0.050000001 -5
		 -3.62770438 0.050000001 -0.5408709 -3.72466683 0.050000001 -0.99999988 -2.30634356 0.050000001 -3.99999976
		 -3 0.050000001 -3.99999976 -3 0.050000001 -3.71489263 -2.45880699 0.050000001 -3.99566913
		 -0.2167623 0.050000001 -3.66139317 -3 -0.050000001 -4 -2.30633521 -0.050000001 -4
		 -2.45880699 -0.050000001 -3.99566913 -3 -0.050000001 -3.71489263 -3.72466707 -0.050000001 -1.000000119209
		 -3.62770438 -0.050000001 -0.5408709 -0.2167623 -0.050000001 -3.66139317 -4 0.050000001 -2.99999976
		 -5 0.050000001 -2.99999976 -5 -0.050000001 -3 -4 -0.050000001 -3 -3 0.050000001 -5
		 -3 -0.050000001 -5 -4 0.050000001 -3.99999976 -5 0.050000001 -3.99999976 -4 0.050000001 -5
		 -5 -0.050000001 -4 -4 -0.050000001 -4 -4 -0.050000001 -5 -3.88482428 0.050000001 -1.75836384
		 -3.85635757 0.050000001 -1.99999988 -3.85635757 -0.050000001 -2.000000238419 -3.88482428 -0.050000001 -1.75836384
		 -5 0.050000001 -5 -5 -0.050000001 -5 -3.76167107 0.050000001 -2.80373597 -3.63657618 0.050000001 -2.99999976
		 -3.63657594 -0.050000001 -3 -3.76167107 -0.050000001 -2.80373597 -2.000000238419 0.050000001 -4.0087013245
		 -2.000000238419 -0.050000001 -4.0087013245 -1.40663004 0.050000001 -4.025555611 -1.40663004 -0.050000001 -4.025555611
		 -3.27029872 -0.050000001 -3.57465887 -3.27029872 0.050000001 -3.57465887;
	setAttr -s 472 ".ed";
	setAttr ".ed[0:165]"  0 1 1 1 2 0 2 3 0 3 0 1 4 5 0 5 6 1 6 7 1 7 4 0 6 8 1
		 8 9 1 9 10 1 10 6 1 11 12 1 12 0 1 0 13 1 13 11 1 14 15 1 15 9 1 9 16 1 16 17 1 17 14 0
		 18 19 1 19 11 1 11 20 1 20 21 1 21 18 0 22 23 0 23 2 0 1 22 1 24 25 0 25 5 1 4 24 0
		 26 22 1 22 27 0 27 28 1 28 26 1 29 28 1 28 30 1 30 31 1 31 29 1 32 33 1 33 34 1 34 35 1
		 35 32 1 36 35 1 35 37 1 37 25 0 25 36 1 12 38 1 38 1 0 8 39 1 39 16 1 19 40 1 40 12 1
		 5 41 0 41 8 1 42 43 1 43 44 1 44 42 0 45 46 1 46 47 1 47 45 0 48 49 1 49 33 1 33 50 1
		 50 48 0 16 51 1 51 52 1 52 17 0 53 31 1 31 43 1 42 54 0 54 53 0 38 27 1 37 41 1 46 19 1
		 18 55 0 55 47 0 56 49 1 48 57 0 57 56 0 27 58 0 58 30 1 49 59 1 59 34 1 30 60 1 60 43 1
		 34 61 1 61 37 0 51 62 1 62 63 0 63 52 0 40 64 1 64 38 0 39 65 1 65 51 1 41 66 0 66 39 1
		 46 67 1 67 40 1 64 58 1 61 66 1 68 69 1 69 70 1 70 68 0 71 72 1 72 73 1 73 71 0 58 74 0
		 74 60 1 59 75 1 75 61 0 67 76 1 76 64 0 66 77 0 77 65 1 76 74 1 75 77 1 74 78 0 78 79 1
		 79 60 1 59 80 1 80 81 1 81 75 0 82 83 1 83 76 0 67 82 1 77 84 0 84 85 1 85 65 1 86 80 1
		 56 86 0 83 78 1 81 84 1 50 87 0 87 88 0 88 89 1 89 14 0 63 57 1 85 90 1 90 62 0 78 91 0
		 91 92 1 92 79 1 80 69 1 69 93 1 93 81 0 94 95 1 95 83 0 82 94 1 84 96 0 96 72 1 72 85 1
		 95 91 1 93 96 1 91 97 0 97 98 1 98 92 1 99 100 1 100 95 0 94 99 1 79 101 1 101 102 0
		 102 44 0 103 82 1 45 104 0;
	setAttr ".ed[166:331]" 104 103 0 100 97 1 93 105 0 105 106 1 106 96 0 102 104 1
		 55 54 1 92 107 1 107 108 0 108 101 0 109 110 1 110 111 1 111 112 0 112 109 0 86 113 0
		 113 70 0 114 115 1 115 116 1 116 117 0 117 114 0 118 94 1 103 119 0 119 118 0 71 120 0
		 120 90 0 97 121 0 121 122 1 122 98 1 123 124 1 124 100 0 99 123 1 108 119 1 124 121 1
		 105 125 0 125 126 1 126 106 0 121 127 0 127 128 1 128 122 1 110 128 1 128 129 1 129 125 0
		 125 110 1 130 131 1 131 124 0 123 130 1 126 132 0 132 130 1 130 115 1 115 126 1 98 133 1
		 133 134 0 134 107 0 131 127 1 129 132 1 135 99 1 118 136 0 136 135 0 127 137 0 137 129 0
		 132 138 0 138 131 0 138 137 0 122 139 1 139 140 0 140 133 0 141 123 1 135 142 0 142 141 0
		 105 143 1 143 111 0 144 106 1 114 144 0 134 136 1 120 113 1 68 145 0 145 143 0 144 146 0
		 146 73 0 140 142 1 147 109 0 112 117 1 116 148 0 148 147 0 139 147 0 148 141 0 146 145 1
		 149 36 1 24 149 0 150 26 1 29 150 1 151 32 1 36 151 1 152 23 0 26 152 1 153 154 1
		 154 29 1 53 153 0 32 155 1 155 87 1 7 149 1 152 3 1 15 156 1 156 10 1 13 157 1 157 20 1
		 10 158 1 158 7 0 3 159 0 159 13 1 160 150 1 154 160 1 161 155 1 151 161 1 162 151 1
		 149 162 0 163 152 0 150 163 1 164 165 1 165 166 1 166 164 0 167 168 1 168 169 1 169 167 0
		 20 170 1 170 171 1 171 21 0 172 173 1 173 154 1 153 172 0 89 166 0 165 15 1 158 162 1
		 163 159 1 167 88 0 155 168 1 170 174 1 174 175 0 175 171 0 165 176 1 176 156 1 156 177 1
		 177 158 0 157 178 1 178 170 1 159 179 0 179 157 1 180 173 1 172 181 0 181 180 0 182 160 1
		 173 182 1 183 168 1 161 183 1 184 161 1 162 184 0 185 163 0 160 185 1 177 184 1 185 179 1
		 186 187 1 187 188 1 188 186 0 189 190 1 190 191 1 191 189 0;
	setAttr ".ed[332:471]" 176 192 1 192 177 0 179 193 0 193 178 1 194 183 1 184 194 0
		 195 185 0 182 195 1 192 194 1 195 193 1 176 196 1 196 197 1 197 192 0 198 178 1 193 199 0
		 199 198 1 200 195 0 182 201 1 201 200 1 202 203 1 203 183 1 194 202 0 198 204 1 204 174 0
		 197 202 1 200 199 1 175 181 1 205 201 1 180 205 0 196 206 1 206 207 1 207 197 0 187 198 1
		 199 208 0 208 187 1 209 210 1 210 203 1 202 209 0 211 200 0 201 190 1 190 211 1 207 209 1
		 211 208 1 206 212 1 212 213 1 213 207 0 214 215 1 215 210 1 209 214 0 164 216 0 216 217 0
		 217 196 1 203 218 1 218 219 0 219 169 0 213 214 1 220 208 0 211 221 0 221 220 1 219 216 1
		 217 222 0 222 223 0 223 206 1 224 225 1 225 226 1 226 227 0 227 224 0 186 228 0 228 204 0
		 229 230 1 230 231 0 231 232 0 232 229 1 210 233 1 233 234 0 234 218 0 205 235 0 235 191 0
		 212 236 1 236 237 1 237 213 0 238 239 1 239 215 1 214 238 0 234 222 1 237 238 1 240 220 0
		 221 241 0 241 240 1 236 242 1 242 243 1 243 237 0 242 225 1 225 240 1 240 244 0 244 242 1
		 245 246 1 246 239 1 238 245 0 247 241 0 241 229 1 229 246 1 246 247 1 223 248 0 248 249 0
		 249 212 1 243 245 1 247 244 1 215 250 1 250 251 0 251 233 0 244 252 0 252 243 0 253 247 0
		 245 253 0 252 253 0 249 254 0 254 255 0 255 236 1 239 256 1 256 257 0 257 250 0 258 220 1
		 224 258 0 221 259 1 259 230 0 251 248 1 228 235 1 258 260 0 260 188 0 189 261 0 261 259 0
		 257 254 1 262 232 0 231 227 1 226 263 0 263 262 0 256 262 0 263 255 0 260 261 1;
	setAttr -s 208 -ch 944 ".fc[0:207]" -type "polyFaces" 
		f 4 0 1 2 3
		mu 0 4 0 1 2 3
		f 4 4 5 6 7
		mu 0 4 4 5 6 7
		f 4 8 9 10 11
		mu 0 4 6 8 9 10
		f 4 12 13 14 15
		mu 0 4 11 12 0 13
		f 5 16 17 18 19 20
		mu 0 5 14 15 9 16 17
		f 5 21 22 23 24 25
		mu 0 5 18 19 11 20 21
		f 4 26 27 -2 28
		mu 0 4 22 23 24 25
		f 4 29 30 -5 31
		mu 0 4 26 27 5 4
		f 4 32 33 34 35
		mu 0 4 28 29 30 31
		f 4 36 37 38 39
		mu 0 4 32 31 33 34
		f 4 40 41 42 43
		mu 0 4 35 36 37 38
		f 4 44 45 46 47
		mu 0 4 39 38 40 41
		f 4 48 49 -1 -14
		mu 0 4 12 42 1 0
		f 4 50 51 -19 -10
		mu 0 4 8 43 16 9
		f 4 52 53 -13 -23
		mu 0 4 19 44 12 11
		f 4 54 55 -9 -6
		mu 0 4 5 45 8 6
		f 3 56 57 58
		mu 0 3 46 47 48
		f 3 59 60 61
		mu 0 3 49 50 51
		f 4 62 63 64 65
		mu 0 4 52 53 36 54
		f 4 -20 66 67 68
		mu 0 4 17 16 55 56
		f 5 69 70 -57 71 72
		mu 0 5 57 34 47 46 58
		f 4 -34 -29 -50 73
		mu 0 4 59 22 25 60
		f 4 -47 74 -55 -31
		mu 0 4 27 61 45 5
		f 5 -61 75 -22 76 77
		mu 0 5 51 50 19 18 62
		f 4 78 -63 79 80
		mu 0 4 63 53 52 64
		f 4 -35 81 82 -38
		mu 0 4 31 30 65 33
		f 4 -64 83 84 -42
		mu 0 4 36 53 66 37
		f 4 -39 85 86 -71
		mu 0 4 34 33 67 47
		f 4 -43 87 88 -46
		mu 0 4 38 37 68 40
		f 4 89 90 91 -68
		mu 0 4 55 69 70 56
		f 4 92 93 -49 -54
		mu 0 4 44 71 42 12
		f 4 94 95 -67 -52
		mu 0 4 43 72 55 16
		f 4 96 97 -51 -56
		mu 0 4 45 73 43 8
		f 4 98 99 -53 -76
		mu 0 4 50 74 44 19
		f 4 -82 -74 -94 100
		mu 0 4 75 59 60 76
		f 4 -89 101 -97 -75
		mu 0 4 61 77 73 45
		f 3 102 103 104
		mu 0 3 78 79 80
		f 3 105 106 107
		mu 0 3 81 82 83
		f 4 -83 108 109 -86
		mu 0 4 33 65 84 67
		f 4 -85 110 111 -88
		mu 0 4 37 66 85 68
		f 4 112 113 -93 -100
		mu 0 4 74 86 71 44
		f 4 114 115 -95 -98
		mu 0 4 73 87 72 43
		f 4 -109 -101 -114 116
		mu 0 4 88 75 76 89
		f 4 -112 117 -115 -102
		mu 0 4 77 90 87 73
		f 4 -110 118 119 120
		mu 0 4 67 84 91 92
		f 4 121 122 123 -111
		mu 0 4 66 93 94 85
		f 4 124 125 -113 126
		mu 0 4 95 96 86 74
		f 4 127 128 129 -116
		mu 0 4 87 97 98 72
		f 5 130 -122 -84 -79 131
		mu 0 5 99 93 66 53 63
		f 4 -119 -117 -126 132
		mu 0 4 100 88 89 101
		f 4 -124 133 -128 -118
		mu 0 4 90 102 97 87
		f 10 -80 -66 134 135 136 137 -21 -69 -92 138
		mu 0 10 103 104 105 106 107 108 109 110 111 112
		f 5 -90 -96 -130 139 140
		mu 0 5 69 55 72 98 113
		f 4 -120 141 142 143
		mu 0 4 92 91 114 115
		f 4 144 145 146 -123
		mu 0 4 93 79 116 94
		f 4 147 148 -125 149
		mu 0 4 117 118 96 95
		f 4 150 151 152 -129
		mu 0 4 97 119 82 98
		f 4 -142 -133 -149 153
		mu 0 4 120 100 101 121
		f 4 -147 154 -151 -134
		mu 0 4 102 122 119 97
		f 4 -143 155 156 157
		mu 0 4 115 114 123 124
		f 4 158 159 -148 160
		mu 0 4 125 126 118 117
		f 6 -87 -121 161 162 163 -58
		mu 0 6 47 67 92 127 128 48
		f 6 164 -127 -99 -60 165 166
		mu 0 6 129 95 74 50 49 130
		f 4 -156 -154 -160 167
		mu 0 4 131 120 121 132
		f 4 168 169 170 -155
		mu 0 4 122 133 134 119
		f 8 -72 -59 -164 171 -166 -62 -78 172
		mu 0 8 135 136 137 138 139 140 141 142
		f 5 -162 -144 173 174 175
		mu 0 5 127 92 115 143 144
		f 4 176 177 178 179
		mu 0 4 145 146 147 148
		f 5 -104 -145 -131 180 181
		mu 0 5 80 79 93 99 149
		f 4 182 183 184 185
		mu 0 4 150 151 152 153
		f 5 186 -150 -165 187 188
		mu 0 5 154 117 95 129 155
		f 5 -153 -106 189 190 -140
		mu 0 5 98 82 81 156 113
		f 4 -157 191 192 193
		mu 0 4 124 123 157 158
		f 4 194 195 -159 196
		mu 0 4 159 160 126 125
		f 6 -163 -176 197 -188 -167 -172
		mu 0 6 138 161 162 163 164 139
		f 4 -192 -168 -196 198
		mu 0 4 165 131 132 166
		f 4 199 200 201 -170
		mu 0 4 133 167 168 134
		f 4 -193 202 203 204
		mu 0 4 158 157 169 170
		f 4 205 206 207 208
		mu 0 4 146 170 171 172
		f 4 209 210 -195 211
		mu 0 4 173 174 160 159
		f 4 212 213 214 215
		mu 0 4 168 175 173 151
		f 5 -174 -158 216 217 218
		mu 0 5 143 115 124 176 177
		f 4 -203 -199 -211 219
		mu 0 4 178 165 166 179
		f 4 -208 220 -213 -201
		mu 0 4 167 180 175 168
		f 5 221 -161 -187 222 223
		mu 0 5 181 125 117 154 182
		f 4 -204 224 225 -207
		mu 0 4 170 169 183 171
		f 4 226 227 -210 -214
		mu 0 4 175 184 174 173
		f 4 -225 -220 -228 228
		mu 0 4 185 178 179 184
		f 4 -226 -229 -227 -221
		mu 0 4 180 185 184 175
		f 5 -217 -194 229 230 231
		mu 0 5 176 124 158 186 187
		f 5 232 -197 -222 233 234
		mu 0 5 188 159 125 181 189
		f 5 -178 -209 -200 235 236
		mu 0 5 147 146 172 190 191
		f 5 237 -202 -216 -183 238
		mu 0 5 192 134 168 151 150
		f 6 -175 -219 239 -223 -189 -198
		mu 0 6 162 193 194 195 196 163
		f 8 -181 -132 -81 -139 -91 -141 -191 240
		mu 0 8 197 198 199 103 112 200 201 202
		f 6 -103 241 242 -236 -169 -146
		mu 0 6 79 78 203 191 190 116
		f 6 -171 -238 243 244 -107 -152
		mu 0 6 119 134 192 204 83 82
		f 6 -218 -232 245 -234 -224 -240
		mu 0 6 194 205 206 207 208 195
		f 6 246 -180 247 -185 248 249
		mu 0 6 209 210 211 212 213 214
		f 6 -231 250 -250 251 -235 -246
		mu 0 6 215 216 209 214 217 218
		f 6 -230 -205 -206 -177 -247 -251
		mu 0 6 186 158 170 146 145 219
		f 6 -215 -212 -233 -252 -249 -184
		mu 0 6 151 173 159 188 220 152
		f 8 -242 -105 -182 -241 -190 -108 -245 252
		mu 0 8 221 222 223 197 202 224 225 226
		f 8 -179 -237 -243 -253 -244 -239 -186 -248
		mu 0 8 211 227 228 221 226 229 230 212
		f 4 253 -48 -30 254
		mu 0 4 231 39 41 232
		f 4 255 -36 -37 256
		mu 0 4 233 28 31 32
		f 4 257 -44 -45 258
		mu 0 4 234 35 38 39
		f 4 259 -27 -33 260
		mu 0 4 235 236 29 28
		f 5 261 262 -40 -70 263
		mu 0 5 237 238 32 34 57
		f 5 -65 -41 264 265 -135
		mu 0 5 54 36 35 239 240
		f 4 -255 -32 -8 266
		mu 0 4 241 26 4 242
		f 4 -3 -28 -260 267
		mu 0 4 3 2 236 235
		f 4 -11 -18 268 269
		mu 0 4 10 9 15 243
		f 4 -24 -16 270 271
		mu 0 4 20 11 13 244
		f 4 -7 -12 272 273
		mu 0 4 7 6 10 245
		f 4 -15 -4 274 275
		mu 0 4 13 0 3 246
		f 4 276 -257 -263 277
		mu 0 4 247 233 32 238
		f 4 278 -265 -258 279
		mu 0 4 248 239 35 234
		f 4 280 -259 -254 281
		mu 0 4 249 234 39 231
		f 4 282 -261 -256 283
		mu 0 4 250 235 28 233
		f 3 284 285 286
		mu 0 3 251 252 253
		f 3 287 288 289
		mu 0 3 254 255 256
		f 4 -25 290 291 292
		mu 0 4 21 20 257 258
		f 4 293 294 -262 295
		mu 0 4 259 260 238 237
		f 5 -17 -138 296 -286 297
		mu 0 5 15 14 261 253 252
		f 4 -282 -267 -274 298
		mu 0 4 262 241 242 263
		f 4 -275 -268 -283 299
		mu 0 4 246 3 235 250
		f 5 -288 300 -136 -266 301
		mu 0 5 255 254 264 240 239
		f 4 -292 302 303 304
		mu 0 4 258 257 265 266
		f 4 -269 -298 305 306
		mu 0 4 243 15 252 267
		f 4 -273 -270 307 308
		mu 0 4 245 10 243 268
		f 4 -291 -272 309 310
		mu 0 4 257 20 244 269
		f 4 -271 -276 311 312
		mu 0 4 244 13 246 270
		f 4 313 -294 314 315
		mu 0 4 271 260 259 272
		f 4 316 -278 -295 317
		mu 0 4 273 247 238 260
		f 4 318 -302 -279 319
		mu 0 4 274 255 239 248
		f 4 320 -280 -281 321
		mu 0 4 275 248 234 249
		f 4 322 -284 -277 323
		mu 0 4 276 250 233 247
		f 4 -322 -299 -309 324
		mu 0 4 277 262 263 278
		f 4 -312 -300 -323 325
		mu 0 4 270 246 250 276
		f 3 326 327 328
		mu 0 3 279 280 281
		f 3 329 330 331
		mu 0 3 282 283 284
		f 4 -308 -307 332 333
		mu 0 4 268 243 267 285
		f 4 -310 -313 334 335
		mu 0 4 269 244 270 286
		f 4 336 -320 -321 337
		mu 0 4 287 274 248 275
		f 4 338 -324 -317 339
		mu 0 4 288 276 247 273
		f 4 -338 -325 -334 340
		mu 0 4 289 277 278 290
		f 4 -335 -326 -339 341
		mu 0 4 286 270 276 288
		f 4 -333 342 343 344
		mu 0 4 285 267 291 292
		f 4 345 -336 346 347
		mu 0 4 293 269 286 294
		f 4 348 -340 349 350
		mu 0 4 295 288 273 296
		f 4 351 352 -337 353
		mu 0 4 297 298 274 287
		f 5 -303 -311 -346 354 355
		mu 0 5 265 257 269 293 299
		f 4 -354 -341 -345 356
		mu 0 4 300 289 290 301
		f 4 -347 -342 -349 357
		mu 0 4 294 286 288 295
		f 10 -315 -296 -264 -73 -173 -77 -26 -293 -305 358
		mu 0 10 302 303 304 305 135 142 306 307 308 309
		f 5 359 -350 -318 -314 360
		mu 0 5 310 296 273 260 271
		f 4 -344 361 362 363
		mu 0 4 292 291 311 312
		f 4 364 -348 365 366
		mu 0 4 280 293 294 313
		f 4 367 368 -352 369
		mu 0 4 314 315 298 297
		f 4 370 -351 371 372
		mu 0 4 316 295 296 283
		f 4 -370 -357 -364 373
		mu 0 4 317 300 301 318
		f 4 -366 -358 -371 374
		mu 0 4 313 294 295 316
		f 4 -363 375 376 377
		mu 0 4 312 311 319 320
		f 4 378 379 -368 380
		mu 0 4 321 322 315 314
		f 6 -306 -285 381 382 383 -343
		mu 0 6 267 252 251 323 324 291
		f 6 384 385 386 -289 -319 -353
		mu 0 6 298 325 326 256 255 274
		f 4 -381 -374 -378 387
		mu 0 4 327 317 318 328
		f 4 388 -375 389 390
		mu 0 4 329 313 316 330
		f 8 -301 -290 -387 391 -382 -287 -297 -137
		mu 0 8 107 331 332 333 334 335 336 108
		f 5 -384 392 393 394 -362
		mu 0 5 291 324 337 338 311
		f 4 395 396 397 398
		mu 0 4 339 340 341 342
		f 5 -355 -365 -327 399 400
		mu 0 5 299 293 280 279 343
		f 4 401 402 403 404
		mu 0 4 344 345 346 347
		f 5 405 406 407 -385 -369
		mu 0 5 315 348 349 325 298
		f 5 -372 -360 408 409 -331
		mu 0 5 283 296 310 350 284
		f 4 -377 410 411 412
		mu 0 4 320 319 351 352
		f 4 413 414 -379 415
		mu 0 4 353 354 322 321
		f 6 -386 -408 416 -393 -383 -392
		mu 0 6 333 355 356 357 358 334
		f 4 -416 -388 -413 417
		mu 0 4 359 327 328 360
		f 4 418 -391 419 420
		mu 0 4 361 329 330 362
		f 4 -412 421 422 423
		mu 0 4 352 351 363 364
		f 4 424 425 426 427
		mu 0 4 363 340 361 365
		f 4 428 429 -414 430
		mu 0 4 366 367 354 353
		f 4 431 432 433 434
		mu 0 4 368 362 344 367
		f 5 -395 435 436 437 -376
		mu 0 5 311 338 369 370 319
		f 4 -431 -418 -424 438
		mu 0 4 371 359 360 372
		f 4 -427 -421 -432 439
		mu 0 4 365 361 362 368
		f 5 440 441 442 -406 -380
		mu 0 5 322 373 374 348 315
		f 4 -423 -428 443 444
		mu 0 4 364 363 365 375
		f 4 445 -435 -429 446
		mu 0 4 376 368 367 366
		f 4 -447 -439 -445 447
		mu 0 4 377 371 372 378
		f 4 -444 -440 -446 -448
		mu 0 4 375 365 368 376
		f 5 -438 448 449 450 -411
		mu 0 5 319 370 379 380 351
		f 5 451 452 453 -441 -415
		mu 0 5 354 381 382 373 322
		f 5 454 -419 -426 -396 455
		mu 0 5 383 329 361 340 339
		f 5 -402 -433 -420 456 457
		mu 0 5 345 344 362 330 384
		f 6 -407 -443 458 -436 -394 -417
		mu 0 6 356 385 386 387 388 357
		f 8 -409 -361 -316 -359 -304 -356 -401 459
		mu 0 8 389 390 391 302 309 392 393 394
		f 6 -328 -367 -389 -455 460 461
		mu 0 6 281 280 313 329 383 395
		f 6 -390 -373 -330 462 463 -457
		mu 0 6 330 316 283 282 396 384
		f 6 -442 -454 464 -449 -437 -459
		mu 0 6 386 397 398 399 400 387
		f 6 465 -404 466 -398 467 468
		mu 0 6 401 402 403 404 405 406
		f 6 -453 469 -469 470 -450 -465
		mu 0 6 398 407 401 406 408 399
		f 6 -451 -471 -468 -397 -425 -422
		mu 0 6 351 380 409 341 340 363
		f 6 -434 -405 -466 -470 -452 -430
		mu 0 6 367 344 347 410 381 354
		f 8 -463 -332 -410 -460 -400 -329 -462 471
		mu 0 8 411 412 413 389 394 414 415 416
		f 8 -403 -458 -464 -472 -461 -456 -399 -467
		mu 0 8 403 417 418 411 416 419 420 404;
	setAttr ".cd" -type "dataPolyComponent" Index_Data Edge 0 ;
	setAttr ".cvd" -type "dataPolyComponent" Index_Data Vertex 0 ;
	setAttr ".pd[0]" -type "dataPolyComponent" Index_Data UV 0 ;
	setAttr ".hfd" -type "dataPolyComponent" Index_Data Face 0 ;
createNode lightLinker -s -n "lightLinker1";
	rename -uid "D2301DC5-044D-47C8-9BBF-FEAFC88E13BB";
	setAttr -s 2 ".lnk";
	setAttr -s 2 ".slnk";
createNode shapeEditorManager -n "shapeEditorManager";
	rename -uid "2FE413C6-F141-747B-297F-57BE8B898A20";
createNode poseInterpolatorManager -n "poseInterpolatorManager";
	rename -uid "8AFD8AAD-004C-7547-622E-E58B0B5632EB";
createNode displayLayerManager -n "layerManager";
	rename -uid "8AE040F7-794E-9639-4FB9-7C966DA9FDA2";
createNode displayLayer -n "defaultLayer";
	rename -uid "C4C0CA42-034C-09F9-AC5E-FEBBF1EFB80F";
	setAttr ".ufem" -type "stringArray" 0  ;
createNode renderLayerManager -n "renderLayerManager";
	rename -uid "0B60F467-6B45-64DE-1D12-B1BFBAAA8B02";
createNode renderLayer -n "defaultRenderLayer";
	rename -uid "5947F0D0-B949-F80F-914B-549AACC09A47";
	setAttr ".g" yes;
createNode aiOptions -s -n "defaultArnoldRenderOptions";
	rename -uid "27046C0A-8C43-6D1D-222C-D082C785C213";
	setAttr ".version" -type "string" "5.2.1.1";
createNode aiAOVFilter -s -n "defaultArnoldFilter";
	rename -uid "399B8D02-AA45-307A-E25A-60985497F8BD";
	setAttr ".ai_translator" -type "string" "gaussian";
createNode aiAOVDriver -s -n "defaultArnoldDriver";
	rename -uid "BFBDE0A6-874E-418A-DC8A-B08BA9E3217E";
	setAttr ".ai_translator" -type "string" "exr";
createNode aiAOVDriver -s -n "defaultArnoldDisplayDriver";
	rename -uid "73DE807F-D645-283E-B28E-2E8D62F9F27A";
	setAttr ".output_mode" 0;
	setAttr ".ai_translator" -type "string" "maya";
createNode groupId -n "groupId5";
	rename -uid "7A306C00-BA4C-0015-3E01-9AB8CDA44F76";
	setAttr ".ihi" 0;
createNode groupId -n "groupId6";
	rename -uid "562ECEE8-734C-47E3-B1A1-CA92E07DAA8E";
	setAttr ".ihi" 0;
createNode script -n "uiConfigurationScriptNode";
	rename -uid "DB57D4B9-4849-5081-448A-5D9E83761EDA";
	setAttr ".b" -type "string" (
		"// Maya Mel UI Configuration File.\n//\n//  This script is machine generated.  Edit at your own risk.\n//\n//\n\nglobal string $gMainPane;\nif (`paneLayout -exists $gMainPane`) {\n\n\tglobal int $gUseScenePanelConfig;\n\tint    $useSceneConfig = $gUseScenePanelConfig;\n\tint    $nodeEditorPanelVisible = stringArrayContains(\"nodeEditorPanel1\", `getPanel -vis`);\n\tint    $nodeEditorWorkspaceControlOpen = (`workspaceControl -exists nodeEditorPanel1Window` && `workspaceControl -q -visible nodeEditorPanel1Window`);\n\tint    $menusOkayInPanels = `optionVar -q allowMenusInPanels`;\n\tint    $nVisPanes = `paneLayout -q -nvp $gMainPane`;\n\tint    $nPanes = 0;\n\tstring $editorName;\n\tstring $panelName;\n\tstring $itemFilterName;\n\tstring $panelConfig;\n\n\t//\n\t//  get current state of the UI\n\t//\n\tsceneUIReplacement -update $gMainPane;\n\n\t$panelName = `sceneUIReplacement -getNextPanel \"modelPanel\" (localizedPanelLabel(\"Top View\")) `;\n\tif (\"\" != $panelName) {\n\t\t$label = `panel -q -label $panelName`;\n\t\tmodelPanel -edit -l (localizedPanelLabel(\"Top View\")) -mbv $menusOkayInPanels  $panelName;\n"
		+ "\t\t$editorName = $panelName;\n        modelEditor -e \n            -camera \"|top\" \n            -useInteractiveMode 0\n            -displayLights \"default\" \n            -displayAppearance \"smoothShaded\" \n            -activeOnly 0\n            -ignorePanZoom 0\n            -wireframeOnShaded 0\n            -headsUpDisplay 1\n            -holdOuts 1\n            -selectionHiliteDisplay 1\n            -useDefaultMaterial 0\n            -bufferMode \"double\" \n            -twoSidedLighting 0\n            -backfaceCulling 0\n            -xray 0\n            -jointXray 0\n            -activeComponentsXray 0\n            -displayTextures 0\n            -smoothWireframe 0\n            -lineWidth 1\n            -textureAnisotropic 0\n            -textureHilight 1\n            -textureSampling 2\n            -textureDisplay \"modulate\" \n            -textureMaxSize 16384\n            -fogging 0\n            -fogSource \"fragment\" \n            -fogMode \"linear\" \n            -fogStart 0\n            -fogEnd 100\n            -fogDensity 0.1\n            -fogColor 0.5 0.5 0.5 1 \n"
		+ "            -depthOfFieldPreview 1\n            -maxConstantTransparency 1\n            -rendererName \"vp2Renderer\" \n            -objectFilterShowInHUD 1\n            -isFiltered 0\n            -colorResolution 256 256 \n            -bumpResolution 512 512 \n            -textureCompression 0\n            -transparencyAlgorithm \"frontAndBackCull\" \n            -transpInShadows 0\n            -cullingOverride \"none\" \n            -lowQualityLighting 0\n            -maximumNumHardwareLights 1\n            -occlusionCulling 0\n            -shadingModel 0\n            -useBaseRenderer 0\n            -useReducedRenderer 0\n            -smallObjectCulling 0\n            -smallObjectThreshold -1 \n            -interactiveDisableShadows 0\n            -interactiveBackFaceCull 0\n            -sortTransparent 1\n            -controllers 1\n            -nurbsCurves 1\n            -nurbsSurfaces 1\n            -polymeshes 1\n            -subdivSurfaces 1\n            -planes 1\n            -lights 1\n            -cameras 1\n            -controlVertices 1\n"
		+ "            -hulls 1\n            -grid 1\n            -imagePlane 1\n            -joints 1\n            -ikHandles 1\n            -deformers 1\n            -dynamics 1\n            -particleInstancers 1\n            -fluids 1\n            -hairSystems 1\n            -follicles 1\n            -nCloths 1\n            -nParticles 1\n            -nRigids 1\n            -dynamicConstraints 1\n            -locators 1\n            -manipulators 1\n            -pluginShapes 1\n            -dimensions 1\n            -handles 1\n            -pivots 1\n            -textures 1\n            -strokes 1\n            -motionTrails 1\n            -clipGhosts 1\n            -bluePencil 1\n            -greasePencils 0\n            -shadows 0\n            -captureSequenceNumber -1\n            -width 1656\n            -height 1020\n            -sceneRenderFilter 0\n            $editorName;\n        modelEditor -e -viewSelected 0 $editorName;\n        modelEditor -e \n            -pluginObjects \"gpuCacheDisplayFilter\" 1 \n            $editorName;\n\t\tif (!$useSceneConfig) {\n"
		+ "\t\t\tpanel -e -l $label $panelName;\n\t\t}\n\t}\n\n\n\t$panelName = `sceneUIReplacement -getNextPanel \"modelPanel\" (localizedPanelLabel(\"Side View\")) `;\n\tif (\"\" != $panelName) {\n\t\t$label = `panel -q -label $panelName`;\n\t\tmodelPanel -edit -l (localizedPanelLabel(\"Side View\")) -mbv $menusOkayInPanels  $panelName;\n\t\t$editorName = $panelName;\n        modelEditor -e \n            -camera \"|side\" \n            -useInteractiveMode 0\n            -displayLights \"default\" \n            -displayAppearance \"smoothShaded\" \n            -activeOnly 0\n            -ignorePanZoom 0\n            -wireframeOnShaded 0\n            -headsUpDisplay 1\n            -holdOuts 1\n            -selectionHiliteDisplay 1\n            -useDefaultMaterial 0\n            -bufferMode \"double\" \n            -twoSidedLighting 0\n            -backfaceCulling 0\n            -xray 0\n            -jointXray 0\n            -activeComponentsXray 0\n            -displayTextures 0\n            -smoothWireframe 0\n            -lineWidth 1\n            -textureAnisotropic 0\n            -textureHilight 1\n"
		+ "            -textureSampling 2\n            -textureDisplay \"modulate\" \n            -textureMaxSize 16384\n            -fogging 0\n            -fogSource \"fragment\" \n            -fogMode \"linear\" \n            -fogStart 0\n            -fogEnd 100\n            -fogDensity 0.1\n            -fogColor 0.5 0.5 0.5 1 \n            -depthOfFieldPreview 1\n            -maxConstantTransparency 1\n            -rendererName \"vp2Renderer\" \n            -objectFilterShowInHUD 1\n            -isFiltered 0\n            -colorResolution 256 256 \n            -bumpResolution 512 512 \n            -textureCompression 0\n            -transparencyAlgorithm \"frontAndBackCull\" \n            -transpInShadows 0\n            -cullingOverride \"none\" \n            -lowQualityLighting 0\n            -maximumNumHardwareLights 1\n            -occlusionCulling 0\n            -shadingModel 0\n            -useBaseRenderer 0\n            -useReducedRenderer 0\n            -smallObjectCulling 0\n            -smallObjectThreshold -1 \n            -interactiveDisableShadows 0\n"
		+ "            -interactiveBackFaceCull 0\n            -sortTransparent 1\n            -controllers 1\n            -nurbsCurves 1\n            -nurbsSurfaces 1\n            -polymeshes 1\n            -subdivSurfaces 1\n            -planes 1\n            -lights 1\n            -cameras 1\n            -controlVertices 1\n            -hulls 1\n            -grid 1\n            -imagePlane 1\n            -joints 1\n            -ikHandles 1\n            -deformers 1\n            -dynamics 1\n            -particleInstancers 1\n            -fluids 1\n            -hairSystems 1\n            -follicles 1\n            -nCloths 1\n            -nParticles 1\n            -nRigids 1\n            -dynamicConstraints 1\n            -locators 1\n            -manipulators 1\n            -pluginShapes 1\n            -dimensions 1\n            -handles 1\n            -pivots 1\n            -textures 1\n            -strokes 1\n            -motionTrails 1\n            -clipGhosts 1\n            -bluePencil 1\n            -greasePencils 0\n            -shadows 0\n            -captureSequenceNumber -1\n"
		+ "            -width 820\n            -height 464\n            -sceneRenderFilter 0\n            $editorName;\n        modelEditor -e -viewSelected 0 $editorName;\n        modelEditor -e \n            -pluginObjects \"gpuCacheDisplayFilter\" 1 \n            $editorName;\n\t\tif (!$useSceneConfig) {\n\t\t\tpanel -e -l $label $panelName;\n\t\t}\n\t}\n\n\n\t$panelName = `sceneUIReplacement -getNextPanel \"modelPanel\" (localizedPanelLabel(\"Front View\")) `;\n\tif (\"\" != $panelName) {\n\t\t$label = `panel -q -label $panelName`;\n\t\tmodelPanel -edit -l (localizedPanelLabel(\"Front View\")) -mbv $menusOkayInPanels  $panelName;\n\t\t$editorName = $panelName;\n        modelEditor -e \n            -camera \"|front\" \n            -useInteractiveMode 0\n            -displayLights \"default\" \n            -displayAppearance \"smoothShaded\" \n            -activeOnly 0\n            -ignorePanZoom 0\n            -wireframeOnShaded 0\n            -headsUpDisplay 1\n            -holdOuts 1\n            -selectionHiliteDisplay 1\n            -useDefaultMaterial 0\n            -bufferMode \"double\" \n"
		+ "            -twoSidedLighting 0\n            -backfaceCulling 0\n            -xray 0\n            -jointXray 0\n            -activeComponentsXray 0\n            -displayTextures 0\n            -smoothWireframe 0\n            -lineWidth 1\n            -textureAnisotropic 0\n            -textureHilight 1\n            -textureSampling 2\n            -textureDisplay \"modulate\" \n            -textureMaxSize 16384\n            -fogging 0\n            -fogSource \"fragment\" \n            -fogMode \"linear\" \n            -fogStart 0\n            -fogEnd 100\n            -fogDensity 0.1\n            -fogColor 0.5 0.5 0.5 1 \n            -depthOfFieldPreview 1\n            -maxConstantTransparency 1\n            -rendererName \"vp2Renderer\" \n            -objectFilterShowInHUD 1\n            -isFiltered 0\n            -colorResolution 256 256 \n            -bumpResolution 512 512 \n            -textureCompression 0\n            -transparencyAlgorithm \"frontAndBackCull\" \n            -transpInShadows 0\n            -cullingOverride \"none\" \n            -lowQualityLighting 0\n"
		+ "            -maximumNumHardwareLights 1\n            -occlusionCulling 0\n            -shadingModel 0\n            -useBaseRenderer 0\n            -useReducedRenderer 0\n            -smallObjectCulling 0\n            -smallObjectThreshold -1 \n            -interactiveDisableShadows 0\n            -interactiveBackFaceCull 0\n            -sortTransparent 1\n            -controllers 1\n            -nurbsCurves 1\n            -nurbsSurfaces 1\n            -polymeshes 1\n            -subdivSurfaces 1\n            -planes 1\n            -lights 1\n            -cameras 1\n            -controlVertices 1\n            -hulls 1\n            -grid 1\n            -imagePlane 1\n            -joints 1\n            -ikHandles 1\n            -deformers 1\n            -dynamics 1\n            -particleInstancers 1\n            -fluids 1\n            -hairSystems 1\n            -follicles 1\n            -nCloths 1\n            -nParticles 1\n            -nRigids 1\n            -dynamicConstraints 1\n            -locators 1\n            -manipulators 1\n            -pluginShapes 1\n"
		+ "            -dimensions 1\n            -handles 1\n            -pivots 1\n            -textures 1\n            -strokes 1\n            -motionTrails 1\n            -clipGhosts 1\n            -bluePencil 1\n            -greasePencils 0\n            -shadows 0\n            -captureSequenceNumber -1\n            -width 822\n            -height 464\n            -sceneRenderFilter 0\n            $editorName;\n        modelEditor -e -viewSelected 0 $editorName;\n        modelEditor -e \n            -pluginObjects \"gpuCacheDisplayFilter\" 1 \n            $editorName;\n\t\tif (!$useSceneConfig) {\n\t\t\tpanel -e -l $label $panelName;\n\t\t}\n\t}\n\n\n\t$panelName = `sceneUIReplacement -getNextPanel \"modelPanel\" (localizedPanelLabel(\"Persp View\")) `;\n\tif (\"\" != $panelName) {\n\t\t$label = `panel -q -label $panelName`;\n\t\tmodelPanel -edit -l (localizedPanelLabel(\"Persp View\")) -mbv $menusOkayInPanels  $panelName;\n\t\t$editorName = $panelName;\n        modelEditor -e \n            -camera \"|persp\" \n            -useInteractiveMode 0\n            -displayLights \"default\" \n"
		+ "            -displayAppearance \"smoothShaded\" \n            -activeOnly 0\n            -ignorePanZoom 0\n            -wireframeOnShaded 0\n            -headsUpDisplay 1\n            -holdOuts 1\n            -selectionHiliteDisplay 1\n            -useDefaultMaterial 0\n            -bufferMode \"double\" \n            -twoSidedLighting 0\n            -backfaceCulling 0\n            -xray 0\n            -jointXray 0\n            -activeComponentsXray 0\n            -displayTextures 0\n            -smoothWireframe 0\n            -lineWidth 1\n            -textureAnisotropic 0\n            -textureHilight 1\n            -textureSampling 2\n            -textureDisplay \"modulate\" \n            -textureMaxSize 16384\n            -fogging 0\n            -fogSource \"fragment\" \n            -fogMode \"linear\" \n            -fogStart 0\n            -fogEnd 100\n            -fogDensity 0.1\n            -fogColor 0.5 0.5 0.5 1 \n            -depthOfFieldPreview 1\n            -maxConstantTransparency 1\n            -rendererName \"vp2Renderer\" \n            -objectFilterShowInHUD 1\n"
		+ "            -isFiltered 0\n            -colorResolution 256 256 \n            -bumpResolution 512 512 \n            -textureCompression 0\n            -transparencyAlgorithm \"frontAndBackCull\" \n            -transpInShadows 0\n            -cullingOverride \"none\" \n            -lowQualityLighting 0\n            -maximumNumHardwareLights 1\n            -occlusionCulling 0\n            -shadingModel 0\n            -useBaseRenderer 0\n            -useReducedRenderer 0\n            -smallObjectCulling 0\n            -smallObjectThreshold -1 \n            -interactiveDisableShadows 0\n            -interactiveBackFaceCull 0\n            -sortTransparent 1\n            -controllers 1\n            -nurbsCurves 1\n            -nurbsSurfaces 1\n            -polymeshes 1\n            -subdivSurfaces 1\n            -planes 1\n            -lights 1\n            -cameras 1\n            -controlVertices 1\n            -hulls 1\n            -grid 1\n            -imagePlane 1\n            -joints 1\n            -ikHandles 1\n            -deformers 1\n            -dynamics 1\n"
		+ "            -particleInstancers 1\n            -fluids 1\n            -hairSystems 1\n            -follicles 1\n            -nCloths 1\n            -nParticles 1\n            -nRigids 1\n            -dynamicConstraints 1\n            -locators 1\n            -manipulators 1\n            -pluginShapes 1\n            -dimensions 1\n            -handles 1\n            -pivots 1\n            -textures 1\n            -strokes 1\n            -motionTrails 1\n            -clipGhosts 1\n            -bluePencil 1\n            -greasePencils 0\n            -shadows 0\n            -captureSequenceNumber -1\n            -width 1276\n            -height 1020\n            -sceneRenderFilter 0\n            $editorName;\n        modelEditor -e -viewSelected 0 $editorName;\n        modelEditor -e \n            -pluginObjects \"gpuCacheDisplayFilter\" 1 \n            $editorName;\n\t\tif (!$useSceneConfig) {\n\t\t\tpanel -e -l $label $panelName;\n\t\t}\n\t}\n\n\n\t$panelName = `sceneUIReplacement -getNextPanel \"outlinerPanel\" (localizedPanelLabel(\"ToggledOutliner\")) `;\n\tif (\"\" != $panelName) {\n"
		+ "\t\t$label = `panel -q -label $panelName`;\n\t\toutlinerPanel -edit -l (localizedPanelLabel(\"ToggledOutliner\")) -mbv $menusOkayInPanels  $panelName;\n\t\t$editorName = $panelName;\n        outlinerEditor -e \n            -showShapes 0\n            -showAssignedMaterials 0\n            -showTimeEditor 1\n            -showReferenceNodes 1\n            -showReferenceMembers 1\n            -showAttributes 0\n            -showConnected 0\n            -showAnimCurvesOnly 0\n            -showMuteInfo 0\n            -organizeByLayer 1\n            -organizeByClip 1\n            -showAnimLayerWeight 1\n            -autoExpandLayers 1\n            -autoExpand 0\n            -showDagOnly 1\n            -showAssets 1\n            -showContainedOnly 1\n            -showPublishedAsConnected 0\n            -showParentContainers 0\n            -showContainerContents 1\n            -ignoreDagHierarchy 0\n            -expandConnections 0\n            -showUpstreamCurves 1\n            -showUnitlessCurves 1\n            -showCompounds 1\n            -showLeafs 1\n"
		+ "            -showNumericAttrsOnly 0\n            -highlightActive 1\n            -autoSelectNewObjects 0\n            -doNotSelectNewObjects 0\n            -dropIsParent 1\n            -transmitFilters 0\n            -setFilter \"defaultSetFilter\" \n            -showSetMembers 1\n            -allowMultiSelection 1\n            -alwaysToggleSelect 0\n            -directSelect 0\n            -isSet 0\n            -isSetMember 0\n            -showUfeItems 1\n            -displayMode \"DAG\" \n            -expandObjects 0\n            -setsIgnoreFilters 1\n            -containersIgnoreFilters 0\n            -editAttrName 0\n            -showAttrValues 0\n            -highlightSecondary 0\n            -showUVAttrsOnly 0\n            -showTextureNodesOnly 0\n            -attrAlphaOrder \"default\" \n            -animLayerFilterOptions \"allAffecting\" \n            -sortOrder \"none\" \n            -longNames 0\n            -niceNames 1\n            -showNamespace 1\n            -showPinIcons 0\n            -mapMotionTrails 0\n            -ignoreHiddenAttribute 0\n"
		+ "            -ignoreOutlinerColor 0\n            -renderFilterVisible 0\n            -renderFilterIndex 0\n            -selectionOrder \"chronological\" \n            -expandAttribute 0\n            $editorName;\n\t\tif (!$useSceneConfig) {\n\t\t\tpanel -e -l $label $panelName;\n\t\t}\n\t}\n\n\n\t$panelName = `sceneUIReplacement -getNextPanel \"outlinerPanel\" (localizedPanelLabel(\"Outliner\")) `;\n\tif (\"\" != $panelName) {\n\t\t$label = `panel -q -label $panelName`;\n\t\toutlinerPanel -edit -l (localizedPanelLabel(\"Outliner\")) -mbv $menusOkayInPanels  $panelName;\n\t\t$editorName = $panelName;\n        outlinerEditor -e \n            -showShapes 0\n            -showAssignedMaterials 0\n            -showTimeEditor 1\n            -showReferenceNodes 0\n            -showReferenceMembers 0\n            -showAttributes 0\n            -showConnected 0\n            -showAnimCurvesOnly 0\n            -showMuteInfo 0\n            -organizeByLayer 1\n            -organizeByClip 1\n            -showAnimLayerWeight 1\n            -autoExpandLayers 1\n            -autoExpand 0\n"
		+ "            -showDagOnly 1\n            -showAssets 1\n            -showContainedOnly 1\n            -showPublishedAsConnected 0\n            -showParentContainers 0\n            -showContainerContents 1\n            -ignoreDagHierarchy 0\n            -expandConnections 0\n            -showUpstreamCurves 1\n            -showUnitlessCurves 1\n            -showCompounds 1\n            -showLeafs 1\n            -showNumericAttrsOnly 0\n            -highlightActive 1\n            -autoSelectNewObjects 0\n            -doNotSelectNewObjects 0\n            -dropIsParent 1\n            -transmitFilters 0\n            -setFilter \"defaultSetFilter\" \n            -showSetMembers 1\n            -allowMultiSelection 1\n            -alwaysToggleSelect 0\n            -directSelect 0\n            -showUfeItems 1\n            -displayMode \"DAG\" \n            -expandObjects 0\n            -setsIgnoreFilters 1\n            -containersIgnoreFilters 0\n            -editAttrName 0\n            -showAttrValues 0\n            -highlightSecondary 0\n            -showUVAttrsOnly 0\n"
		+ "            -showTextureNodesOnly 0\n            -attrAlphaOrder \"default\" \n            -animLayerFilterOptions \"allAffecting\" \n            -sortOrder \"none\" \n            -longNames 0\n            -niceNames 1\n            -showNamespace 1\n            -showPinIcons 0\n            -mapMotionTrails 0\n            -ignoreHiddenAttribute 0\n            -ignoreOutlinerColor 0\n            -renderFilterVisible 0\n            $editorName;\n\t\tif (!$useSceneConfig) {\n\t\t\tpanel -e -l $label $panelName;\n\t\t}\n\t}\n\n\n\t$panelName = `sceneUIReplacement -getNextScriptedPanel \"graphEditor\" (localizedPanelLabel(\"Graph Editor\")) `;\n\tif (\"\" != $panelName) {\n\t\t$label = `panel -q -label $panelName`;\n\t\tscriptedPanel -edit -l (localizedPanelLabel(\"Graph Editor\")) -mbv $menusOkayInPanels  $panelName;\n\n\t\t\t$editorName = ($panelName+\"OutlineEd\");\n            outlinerEditor -e \n                -showShapes 1\n                -showAssignedMaterials 0\n                -showTimeEditor 1\n                -showReferenceNodes 0\n                -showReferenceMembers 0\n"
		+ "                -showAttributes 1\n                -showConnected 1\n                -showAnimCurvesOnly 1\n                -showMuteInfo 0\n                -organizeByLayer 1\n                -organizeByClip 1\n                -showAnimLayerWeight 1\n                -autoExpandLayers 1\n                -autoExpand 1\n                -showDagOnly 0\n                -showAssets 1\n                -showContainedOnly 0\n                -showPublishedAsConnected 0\n                -showParentContainers 0\n                -showContainerContents 0\n                -ignoreDagHierarchy 0\n                -expandConnections 1\n                -showUpstreamCurves 1\n                -showUnitlessCurves 1\n                -showCompounds 0\n                -showLeafs 1\n                -showNumericAttrsOnly 1\n                -highlightActive 0\n                -autoSelectNewObjects 1\n                -doNotSelectNewObjects 0\n                -dropIsParent 1\n                -transmitFilters 1\n                -setFilter \"0\" \n                -showSetMembers 0\n"
		+ "                -allowMultiSelection 1\n                -alwaysToggleSelect 0\n                -directSelect 0\n                -showUfeItems 1\n                -displayMode \"DAG\" \n                -expandObjects 0\n                -setsIgnoreFilters 1\n                -containersIgnoreFilters 0\n                -editAttrName 0\n                -showAttrValues 0\n                -highlightSecondary 0\n                -showUVAttrsOnly 0\n                -showTextureNodesOnly 0\n                -attrAlphaOrder \"default\" \n                -animLayerFilterOptions \"allAffecting\" \n                -sortOrder \"none\" \n                -longNames 0\n                -niceNames 1\n                -showNamespace 1\n                -showPinIcons 1\n                -mapMotionTrails 1\n                -ignoreHiddenAttribute 0\n                -ignoreOutlinerColor 0\n                -renderFilterVisible 0\n                $editorName;\n\n\t\t\t$editorName = ($panelName+\"GraphEd\");\n            animCurveEditor -e \n                -displayValues 0\n                -snapTime \"integer\" \n"
		+ "                -snapValue \"none\" \n                -showPlayRangeShades \"on\" \n                -lockPlayRangeShades \"off\" \n                -smoothness \"fine\" \n                -resultSamples 1\n                -resultScreenSamples 0\n                -resultUpdate \"delayed\" \n                -showUpstreamCurves 1\n                -keyMinScale 1\n                -stackedCurvesMin -1\n                -stackedCurvesMax 1\n                -stackedCurvesSpace 0.2\n                -preSelectionHighlight 0\n                -constrainDrag 0\n                -valueLinesToggle 1\n                -highlightAffectedCurves 0\n                $editorName;\n\t\tif (!$useSceneConfig) {\n\t\t\tpanel -e -l $label $panelName;\n\t\t}\n\t}\n\n\n\t$panelName = `sceneUIReplacement -getNextScriptedPanel \"dopeSheetPanel\" (localizedPanelLabel(\"Dope Sheet\")) `;\n\tif (\"\" != $panelName) {\n\t\t$label = `panel -q -label $panelName`;\n\t\tscriptedPanel -edit -l (localizedPanelLabel(\"Dope Sheet\")) -mbv $menusOkayInPanels  $panelName;\n\n\t\t\t$editorName = ($panelName+\"OutlineEd\");\n            outlinerEditor -e \n"
		+ "                -showShapes 1\n                -showAssignedMaterials 0\n                -showTimeEditor 1\n                -showReferenceNodes 0\n                -showReferenceMembers 0\n                -showAttributes 1\n                -showConnected 1\n                -showAnimCurvesOnly 1\n                -showMuteInfo 0\n                -organizeByLayer 1\n                -organizeByClip 1\n                -showAnimLayerWeight 1\n                -autoExpandLayers 1\n                -autoExpand 0\n                -showDagOnly 0\n                -showAssets 1\n                -showContainedOnly 0\n                -showPublishedAsConnected 0\n                -showParentContainers 0\n                -showContainerContents 0\n                -ignoreDagHierarchy 0\n                -expandConnections 1\n                -showUpstreamCurves 1\n                -showUnitlessCurves 0\n                -showCompounds 1\n                -showLeafs 1\n                -showNumericAttrsOnly 1\n                -highlightActive 0\n                -autoSelectNewObjects 0\n"
		+ "                -doNotSelectNewObjects 1\n                -dropIsParent 1\n                -transmitFilters 0\n                -setFilter \"0\" \n                -showSetMembers 0\n                -allowMultiSelection 1\n                -alwaysToggleSelect 0\n                -directSelect 0\n                -showUfeItems 1\n                -displayMode \"DAG\" \n                -expandObjects 0\n                -setsIgnoreFilters 1\n                -containersIgnoreFilters 0\n                -editAttrName 0\n                -showAttrValues 0\n                -highlightSecondary 0\n                -showUVAttrsOnly 0\n                -showTextureNodesOnly 0\n                -attrAlphaOrder \"default\" \n                -animLayerFilterOptions \"allAffecting\" \n                -sortOrder \"none\" \n                -longNames 0\n                -niceNames 1\n                -showNamespace 1\n                -showPinIcons 0\n                -mapMotionTrails 1\n                -ignoreHiddenAttribute 0\n                -ignoreOutlinerColor 0\n                -renderFilterVisible 0\n"
		+ "                $editorName;\n\n\t\t\t$editorName = ($panelName+\"DopeSheetEd\");\n            dopeSheetEditor -e \n                -displayValues 0\n                -snapTime \"integer\" \n                -snapValue \"none\" \n                -outliner \"dopeSheetPanel1OutlineEd\" \n                -showSummary 1\n                -showScene 0\n                -hierarchyBelow 0\n                -showTicks 1\n                -selectionWindow 0 0 0 0 \n                $editorName;\n\t\tif (!$useSceneConfig) {\n\t\t\tpanel -e -l $label $panelName;\n\t\t}\n\t}\n\n\n\t$panelName = `sceneUIReplacement -getNextScriptedPanel \"timeEditorPanel\" (localizedPanelLabel(\"Time Editor\")) `;\n\tif (\"\" != $panelName) {\n\t\t$label = `panel -q -label $panelName`;\n\t\tscriptedPanel -edit -l (localizedPanelLabel(\"Time Editor\")) -mbv $menusOkayInPanels  $panelName;\n\t\tif (!$useSceneConfig) {\n\t\t\tpanel -e -l $label $panelName;\n\t\t}\n\t}\n\n\n\t$panelName = `sceneUIReplacement -getNextScriptedPanel \"clipEditorPanel\" (localizedPanelLabel(\"Trax Editor\")) `;\n\tif (\"\" != $panelName) {\n\t\t$label = `panel -q -label $panelName`;\n"
		+ "\t\tscriptedPanel -edit -l (localizedPanelLabel(\"Trax Editor\")) -mbv $menusOkayInPanels  $panelName;\n\n\t\t\t$editorName = clipEditorNameFromPanel($panelName);\n            clipEditor -e \n                -displayValues 0\n                -snapTime \"none\" \n                -snapValue \"none\" \n                -initialized 0\n                -manageSequencer 0 \n                $editorName;\n\t\tif (!$useSceneConfig) {\n\t\t\tpanel -e -l $label $panelName;\n\t\t}\n\t}\n\n\n\t$panelName = `sceneUIReplacement -getNextScriptedPanel \"sequenceEditorPanel\" (localizedPanelLabel(\"Camera Sequencer\")) `;\n\tif (\"\" != $panelName) {\n\t\t$label = `panel -q -label $panelName`;\n\t\tscriptedPanel -edit -l (localizedPanelLabel(\"Camera Sequencer\")) -mbv $menusOkayInPanels  $panelName;\n\n\t\t\t$editorName = sequenceEditorNameFromPanel($panelName);\n            clipEditor -e \n                -displayValues 0\n                -snapTime \"none\" \n                -snapValue \"none\" \n                -initialized 0\n                -manageSequencer 1 \n                $editorName;\n"
		+ "\t\tif (!$useSceneConfig) {\n\t\t\tpanel -e -l $label $panelName;\n\t\t}\n\t}\n\n\n\t$panelName = `sceneUIReplacement -getNextScriptedPanel \"hyperGraphPanel\" (localizedPanelLabel(\"Hypergraph Hierarchy\")) `;\n\tif (\"\" != $panelName) {\n\t\t$label = `panel -q -label $panelName`;\n\t\tscriptedPanel -edit -l (localizedPanelLabel(\"Hypergraph Hierarchy\")) -mbv $menusOkayInPanels  $panelName;\n\n\t\t\t$editorName = ($panelName+\"HyperGraphEd\");\n            hyperGraph -e \n                -graphLayoutStyle \"hierarchicalLayout\" \n                -orientation \"horiz\" \n                -mergeConnections 0\n                -zoom 1\n                -animateTransition 0\n                -showRelationships 1\n                -showShapes 0\n                -showDeformers 0\n                -showExpressions 0\n                -showConstraints 0\n                -showConnectionFromSelected 0\n                -showConnectionToSelected 0\n                -showConstraintLabels 0\n                -showUnderworld 0\n                -showInvisible 0\n                -transitionFrames 1\n"
		+ "                -opaqueContainers 0\n                -freeform 0\n                -imagePosition 0 0 \n                -imageScale 1\n                -imageEnabled 0\n                -graphType \"DAG\" \n                -heatMapDisplay 0\n                -updateSelection 1\n                -updateNodeAdded 1\n                -useDrawOverrideColor 0\n                -limitGraphTraversal -1\n                -range 0 0 \n                -iconSize \"smallIcons\" \n                -showCachedConnections 0\n                $editorName;\n\t\tif (!$useSceneConfig) {\n\t\t\tpanel -e -l $label $panelName;\n\t\t}\n\t}\n\n\n\t$panelName = `sceneUIReplacement -getNextScriptedPanel \"hyperShadePanel\" (localizedPanelLabel(\"Hypershade\")) `;\n\tif (\"\" != $panelName) {\n\t\t$label = `panel -q -label $panelName`;\n\t\tscriptedPanel -edit -l (localizedPanelLabel(\"Hypershade\")) -mbv $menusOkayInPanels  $panelName;\n\t\tif (!$useSceneConfig) {\n\t\t\tpanel -e -l $label $panelName;\n\t\t}\n\t}\n\n\n\t$panelName = `sceneUIReplacement -getNextScriptedPanel \"visorPanel\" (localizedPanelLabel(\"Visor\")) `;\n"
		+ "\tif (\"\" != $panelName) {\n\t\t$label = `panel -q -label $panelName`;\n\t\tscriptedPanel -edit -l (localizedPanelLabel(\"Visor\")) -mbv $menusOkayInPanels  $panelName;\n\t\tif (!$useSceneConfig) {\n\t\t\tpanel -e -l $label $panelName;\n\t\t}\n\t}\n\n\n\t$panelName = `sceneUIReplacement -getNextScriptedPanel \"nodeEditorPanel\" (localizedPanelLabel(\"Node Editor\")) `;\n\tif ($nodeEditorPanelVisible || $nodeEditorWorkspaceControlOpen) {\n\t\tif (\"\" == $panelName) {\n\t\t\tif ($useSceneConfig) {\n\t\t\t\t$panelName = `scriptedPanel -unParent  -type \"nodeEditorPanel\" -l (localizedPanelLabel(\"Node Editor\")) -mbv $menusOkayInPanels `;\n\n\t\t\t$editorName = ($panelName+\"NodeEditorEd\");\n            nodeEditor -e \n                -allAttributes 0\n                -allNodes 0\n                -autoSizeNodes 1\n                -consistentNameSize 1\n                -createNodeCommand \"nodeEdCreateNodeCommand\" \n                -connectNodeOnCreation 0\n                -connectOnDrop 0\n                -copyConnectionsOnPaste 0\n                -connectionStyle \"bezier\" \n                -defaultPinnedState 0\n"
		+ "                -additiveGraphingMode 0\n                -connectedGraphingMode 1\n                -settingsChangedCallback \"nodeEdSyncControls\" \n                -traversalDepthLimit -1\n                -keyPressCommand \"nodeEdKeyPressCommand\" \n                -nodeTitleMode \"name\" \n                -gridSnap 0\n                -gridVisibility 1\n                -crosshairOnEdgeDragging 0\n                -popupMenuScript \"nodeEdBuildPanelMenus\" \n                -showNamespace 1\n                -showShapes 1\n                -showSGShapes 0\n                -showTransforms 1\n                -useAssets 1\n                -syncedSelection 1\n                -extendToShapes 1\n                -showUnitConversions 0\n                -editorMode \"default\" \n                -hasWatchpoint 0\n                $editorName;\n\t\t\t}\n\t\t} else {\n\t\t\t$label = `panel -q -label $panelName`;\n\t\t\tscriptedPanel -edit -l (localizedPanelLabel(\"Node Editor\")) -mbv $menusOkayInPanels  $panelName;\n\n\t\t\t$editorName = ($panelName+\"NodeEditorEd\");\n            nodeEditor -e \n"
		+ "                -allAttributes 0\n                -allNodes 0\n                -autoSizeNodes 1\n                -consistentNameSize 1\n                -createNodeCommand \"nodeEdCreateNodeCommand\" \n                -connectNodeOnCreation 0\n                -connectOnDrop 0\n                -copyConnectionsOnPaste 0\n                -connectionStyle \"bezier\" \n                -defaultPinnedState 0\n                -additiveGraphingMode 0\n                -connectedGraphingMode 1\n                -settingsChangedCallback \"nodeEdSyncControls\" \n                -traversalDepthLimit -1\n                -keyPressCommand \"nodeEdKeyPressCommand\" \n                -nodeTitleMode \"name\" \n                -gridSnap 0\n                -gridVisibility 1\n                -crosshairOnEdgeDragging 0\n                -popupMenuScript \"nodeEdBuildPanelMenus\" \n                -showNamespace 1\n                -showShapes 1\n                -showSGShapes 0\n                -showTransforms 1\n                -useAssets 1\n                -syncedSelection 1\n"
		+ "                -extendToShapes 1\n                -showUnitConversions 0\n                -editorMode \"default\" \n                -hasWatchpoint 0\n                $editorName;\n\t\t\tif (!$useSceneConfig) {\n\t\t\t\tpanel -e -l $label $panelName;\n\t\t\t}\n\t\t}\n\t}\n\n\n\t$panelName = `sceneUIReplacement -getNextScriptedPanel \"createNodePanel\" (localizedPanelLabel(\"Create Node\")) `;\n\tif (\"\" != $panelName) {\n\t\t$label = `panel -q -label $panelName`;\n\t\tscriptedPanel -edit -l (localizedPanelLabel(\"Create Node\")) -mbv $menusOkayInPanels  $panelName;\n\t\tif (!$useSceneConfig) {\n\t\t\tpanel -e -l $label $panelName;\n\t\t}\n\t}\n\n\n\t$panelName = `sceneUIReplacement -getNextScriptedPanel \"polyTexturePlacementPanel\" (localizedPanelLabel(\"UV Editor\")) `;\n\tif (\"\" != $panelName) {\n\t\t$label = `panel -q -label $panelName`;\n\t\tscriptedPanel -edit -l (localizedPanelLabel(\"UV Editor\")) -mbv $menusOkayInPanels  $panelName;\n\t\tif (!$useSceneConfig) {\n\t\t\tpanel -e -l $label $panelName;\n\t\t}\n\t}\n\n\n\t$panelName = `sceneUIReplacement -getNextScriptedPanel \"renderWindowPanel\" (localizedPanelLabel(\"Render View\")) `;\n"
		+ "\tif (\"\" != $panelName) {\n\t\t$label = `panel -q -label $panelName`;\n\t\tscriptedPanel -edit -l (localizedPanelLabel(\"Render View\")) -mbv $menusOkayInPanels  $panelName;\n\t\tif (!$useSceneConfig) {\n\t\t\tpanel -e -l $label $panelName;\n\t\t}\n\t}\n\n\n\t$panelName = `sceneUIReplacement -getNextPanel \"shapePanel\" (localizedPanelLabel(\"Shape Editor\")) `;\n\tif (\"\" != $panelName) {\n\t\t$label = `panel -q -label $panelName`;\n\t\tshapePanel -edit -l (localizedPanelLabel(\"Shape Editor\")) -mbv $menusOkayInPanels  $panelName;\n\t\tif (!$useSceneConfig) {\n\t\t\tpanel -e -l $label $panelName;\n\t\t}\n\t}\n\n\n\t$panelName = `sceneUIReplacement -getNextPanel \"posePanel\" (localizedPanelLabel(\"Pose Editor\")) `;\n\tif (\"\" != $panelName) {\n\t\t$label = `panel -q -label $panelName`;\n\t\tposePanel -edit -l (localizedPanelLabel(\"Pose Editor\")) -mbv $menusOkayInPanels  $panelName;\n\t\tif (!$useSceneConfig) {\n\t\t\tpanel -e -l $label $panelName;\n\t\t}\n\t}\n\n\n\t$panelName = `sceneUIReplacement -getNextScriptedPanel \"dynRelEdPanel\" (localizedPanelLabel(\"Dynamic Relationships\")) `;\n\tif (\"\" != $panelName) {\n"
		+ "\t\t$label = `panel -q -label $panelName`;\n\t\tscriptedPanel -edit -l (localizedPanelLabel(\"Dynamic Relationships\")) -mbv $menusOkayInPanels  $panelName;\n\t\tif (!$useSceneConfig) {\n\t\t\tpanel -e -l $label $panelName;\n\t\t}\n\t}\n\n\n\t$panelName = `sceneUIReplacement -getNextScriptedPanel \"relationshipPanel\" (localizedPanelLabel(\"Relationship Editor\")) `;\n\tif (\"\" != $panelName) {\n\t\t$label = `panel -q -label $panelName`;\n\t\tscriptedPanel -edit -l (localizedPanelLabel(\"Relationship Editor\")) -mbv $menusOkayInPanels  $panelName;\n\t\tif (!$useSceneConfig) {\n\t\t\tpanel -e -l $label $panelName;\n\t\t}\n\t}\n\n\n\t$panelName = `sceneUIReplacement -getNextScriptedPanel \"referenceEditorPanel\" (localizedPanelLabel(\"Reference Editor\")) `;\n\tif (\"\" != $panelName) {\n\t\t$label = `panel -q -label $panelName`;\n\t\tscriptedPanel -edit -l (localizedPanelLabel(\"Reference Editor\")) -mbv $menusOkayInPanels  $panelName;\n\t\tif (!$useSceneConfig) {\n\t\t\tpanel -e -l $label $panelName;\n\t\t}\n\t}\n\n\n\t$panelName = `sceneUIReplacement -getNextScriptedPanel \"dynPaintScriptedPanelType\" (localizedPanelLabel(\"Paint Effects\")) `;\n"
		+ "\tif (\"\" != $panelName) {\n\t\t$label = `panel -q -label $panelName`;\n\t\tscriptedPanel -edit -l (localizedPanelLabel(\"Paint Effects\")) -mbv $menusOkayInPanels  $panelName;\n\t\tif (!$useSceneConfig) {\n\t\t\tpanel -e -l $label $panelName;\n\t\t}\n\t}\n\n\n\t$panelName = `sceneUIReplacement -getNextScriptedPanel \"scriptEditorPanel\" (localizedPanelLabel(\"Script Editor\")) `;\n\tif (\"\" != $panelName) {\n\t\t$label = `panel -q -label $panelName`;\n\t\tscriptedPanel -edit -l (localizedPanelLabel(\"Script Editor\")) -mbv $menusOkayInPanels  $panelName;\n\t\tif (!$useSceneConfig) {\n\t\t\tpanel -e -l $label $panelName;\n\t\t}\n\t}\n\n\n\t$panelName = `sceneUIReplacement -getNextScriptedPanel \"profilerPanel\" (localizedPanelLabel(\"Profiler Tool\")) `;\n\tif (\"\" != $panelName) {\n\t\t$label = `panel -q -label $panelName`;\n\t\tscriptedPanel -edit -l (localizedPanelLabel(\"Profiler Tool\")) -mbv $menusOkayInPanels  $panelName;\n\t\tif (!$useSceneConfig) {\n\t\t\tpanel -e -l $label $panelName;\n\t\t}\n\t}\n\n\n\t$panelName = `sceneUIReplacement -getNextScriptedPanel \"contentBrowserPanel\" (localizedPanelLabel(\"Content Browser\")) `;\n"
		+ "\tif (\"\" != $panelName) {\n\t\t$label = `panel -q -label $panelName`;\n\t\tscriptedPanel -edit -l (localizedPanelLabel(\"Content Browser\")) -mbv $menusOkayInPanels  $panelName;\n\t\tif (!$useSceneConfig) {\n\t\t\tpanel -e -l $label $panelName;\n\t\t}\n\t}\n\n\n\tif ($useSceneConfig) {\n        string $configName = `getPanel -cwl (localizedPanelLabel(\"Current Layout\"))`;\n        if (\"\" != $configName) {\n\t\t\tpanelConfiguration -edit -label (localizedPanelLabel(\"Current Layout\")) \n\t\t\t\t-userCreated false\n\t\t\t\t-defaultImage \"vacantCell.xP:/\"\n\t\t\t\t-image \"\"\n\t\t\t\t-sc false\n\t\t\t\t-configString \"global string $gMainPane; paneLayout -e -cn \\\"single\\\" -ps 1 100 100 $gMainPane;\"\n\t\t\t\t-removeAllPanels\n\t\t\t\t-ap false\n\t\t\t\t\t(localizedPanelLabel(\"Persp View\")) \n\t\t\t\t\t\"modelPanel\"\n"
		+ "\t\t\t\t\t\"$panelName = `modelPanel -unParent -l (localizedPanelLabel(\\\"Persp View\\\")) -mbv $menusOkayInPanels `;\\n$editorName = $panelName;\\nmodelEditor -e \\n    -cam `findStartUpCamera persp` \\n    -useInteractiveMode 0\\n    -displayLights \\\"default\\\" \\n    -displayAppearance \\\"smoothShaded\\\" \\n    -activeOnly 0\\n    -ignorePanZoom 0\\n    -wireframeOnShaded 0\\n    -headsUpDisplay 1\\n    -holdOuts 1\\n    -selectionHiliteDisplay 1\\n    -useDefaultMaterial 0\\n    -bufferMode \\\"double\\\" \\n    -twoSidedLighting 0\\n    -backfaceCulling 0\\n    -xray 0\\n    -jointXray 0\\n    -activeComponentsXray 0\\n    -displayTextures 0\\n    -smoothWireframe 0\\n    -lineWidth 1\\n    -textureAnisotropic 0\\n    -textureHilight 1\\n    -textureSampling 2\\n    -textureDisplay \\\"modulate\\\" \\n    -textureMaxSize 16384\\n    -fogging 0\\n    -fogSource \\\"fragment\\\" \\n    -fogMode \\\"linear\\\" \\n    -fogStart 0\\n    -fogEnd 100\\n    -fogDensity 0.1\\n    -fogColor 0.5 0.5 0.5 1 \\n    -depthOfFieldPreview 1\\n    -maxConstantTransparency 1\\n    -rendererName \\\"vp2Renderer\\\" \\n    -objectFilterShowInHUD 1\\n    -isFiltered 0\\n    -colorResolution 256 256 \\n    -bumpResolution 512 512 \\n    -textureCompression 0\\n    -transparencyAlgorithm \\\"frontAndBackCull\\\" \\n    -transpInShadows 0\\n    -cullingOverride \\\"none\\\" \\n    -lowQualityLighting 0\\n    -maximumNumHardwareLights 1\\n    -occlusionCulling 0\\n    -shadingModel 0\\n    -useBaseRenderer 0\\n    -useReducedRenderer 0\\n    -smallObjectCulling 0\\n    -smallObjectThreshold -1 \\n    -interactiveDisableShadows 0\\n    -interactiveBackFaceCull 0\\n    -sortTransparent 1\\n    -controllers 1\\n    -nurbsCurves 1\\n    -nurbsSurfaces 1\\n    -polymeshes 1\\n    -subdivSurfaces 1\\n    -planes 1\\n    -lights 1\\n    -cameras 1\\n    -controlVertices 1\\n    -hulls 1\\n    -grid 1\\n    -imagePlane 1\\n    -joints 1\\n    -ikHandles 1\\n    -deformers 1\\n    -dynamics 1\\n    -particleInstancers 1\\n    -fluids 1\\n    -hairSystems 1\\n    -follicles 1\\n    -nCloths 1\\n    -nParticles 1\\n    -nRigids 1\\n    -dynamicConstraints 1\\n    -locators 1\\n    -manipulators 1\\n    -pluginShapes 1\\n    -dimensions 1\\n    -handles 1\\n    -pivots 1\\n    -textures 1\\n    -strokes 1\\n    -motionTrails 1\\n    -clipGhosts 1\\n    -bluePencil 1\\n    -greasePencils 0\\n    -shadows 0\\n    -captureSequenceNumber -1\\n    -width 1276\\n    -height 1020\\n    -sceneRenderFilter 0\\n    $editorName;\\nmodelEditor -e -viewSelected 0 $editorName;\\nmodelEditor -e \\n    -pluginObjects \\\"gpuCacheDisplayFilter\\\" 1 \\n    $editorName\"\n"
		+ "\t\t\t\t\t\"modelPanel -edit -l (localizedPanelLabel(\\\"Persp View\\\")) -mbv $menusOkayInPanels  $panelName;\\n$editorName = $panelName;\\nmodelEditor -e \\n    -cam `findStartUpCamera persp` \\n    -useInteractiveMode 0\\n    -displayLights \\\"default\\\" \\n    -displayAppearance \\\"smoothShaded\\\" \\n    -activeOnly 0\\n    -ignorePanZoom 0\\n    -wireframeOnShaded 0\\n    -headsUpDisplay 1\\n    -holdOuts 1\\n    -selectionHiliteDisplay 1\\n    -useDefaultMaterial 0\\n    -bufferMode \\\"double\\\" \\n    -twoSidedLighting 0\\n    -backfaceCulling 0\\n    -xray 0\\n    -jointXray 0\\n    -activeComponentsXray 0\\n    -displayTextures 0\\n    -smoothWireframe 0\\n    -lineWidth 1\\n    -textureAnisotropic 0\\n    -textureHilight 1\\n    -textureSampling 2\\n    -textureDisplay \\\"modulate\\\" \\n    -textureMaxSize 16384\\n    -fogging 0\\n    -fogSource \\\"fragment\\\" \\n    -fogMode \\\"linear\\\" \\n    -fogStart 0\\n    -fogEnd 100\\n    -fogDensity 0.1\\n    -fogColor 0.5 0.5 0.5 1 \\n    -depthOfFieldPreview 1\\n    -maxConstantTransparency 1\\n    -rendererName \\\"vp2Renderer\\\" \\n    -objectFilterShowInHUD 1\\n    -isFiltered 0\\n    -colorResolution 256 256 \\n    -bumpResolution 512 512 \\n    -textureCompression 0\\n    -transparencyAlgorithm \\\"frontAndBackCull\\\" \\n    -transpInShadows 0\\n    -cullingOverride \\\"none\\\" \\n    -lowQualityLighting 0\\n    -maximumNumHardwareLights 1\\n    -occlusionCulling 0\\n    -shadingModel 0\\n    -useBaseRenderer 0\\n    -useReducedRenderer 0\\n    -smallObjectCulling 0\\n    -smallObjectThreshold -1 \\n    -interactiveDisableShadows 0\\n    -interactiveBackFaceCull 0\\n    -sortTransparent 1\\n    -controllers 1\\n    -nurbsCurves 1\\n    -nurbsSurfaces 1\\n    -polymeshes 1\\n    -subdivSurfaces 1\\n    -planes 1\\n    -lights 1\\n    -cameras 1\\n    -controlVertices 1\\n    -hulls 1\\n    -grid 1\\n    -imagePlane 1\\n    -joints 1\\n    -ikHandles 1\\n    -deformers 1\\n    -dynamics 1\\n    -particleInstancers 1\\n    -fluids 1\\n    -hairSystems 1\\n    -follicles 1\\n    -nCloths 1\\n    -nParticles 1\\n    -nRigids 1\\n    -dynamicConstraints 1\\n    -locators 1\\n    -manipulators 1\\n    -pluginShapes 1\\n    -dimensions 1\\n    -handles 1\\n    -pivots 1\\n    -textures 1\\n    -strokes 1\\n    -motionTrails 1\\n    -clipGhosts 1\\n    -bluePencil 1\\n    -greasePencils 0\\n    -shadows 0\\n    -captureSequenceNumber -1\\n    -width 1276\\n    -height 1020\\n    -sceneRenderFilter 0\\n    $editorName;\\nmodelEditor -e -viewSelected 0 $editorName;\\nmodelEditor -e \\n    -pluginObjects \\\"gpuCacheDisplayFilter\\\" 1 \\n    $editorName\"\n"
		+ "\t\t\t\t$configName;\n\n            setNamedPanelLayout (localizedPanelLabel(\"Current Layout\"));\n        }\n\n        panelHistory -e -clear mainPanelHistory;\n        sceneUIReplacement -clear;\n\t}\n\n\ngrid -spacing 5 -size 12 -divisions 5 -displayAxes yes -displayGridLines yes -displayDivisionLines yes -displayPerspectiveLabels no -displayOrthographicLabels no -displayAxesBold yes -perspectiveLabelPosition axis -orthographicLabelPosition edge;\nviewManip -drawCompass 0 -compassAngle 0 -frontParameters \"\" -homeParameters \"\" -selectionLockParameters \"\";\n}\n");
	setAttr ".st" 3;
createNode script -n "sceneConfigurationScriptNode";
	rename -uid "C9A39D9D-A14E-7F23-17D4-20A52ECFB6CD";
	setAttr ".b" -type "string" "playbackOptions -min 0 -max 1 -ast 0 -aet 272.4 ";
	setAttr ".st" 6;
select -ne :time1;
	setAttr ".o" 0;
select -ne :hardwareRenderingGlobals;
	setAttr ".otfna" -type "stringArray" 22 "NURBS Curves" "NURBS Surfaces" "Polygons" "Subdiv Surface" "Particles" "Particle Instance" "Fluids" "Strokes" "Image Planes" "UI" "Lights" "Cameras" "Locators" "Joints" "IK Handles" "Deformers" "Motion Trails" "Components" "Hair Systems" "Follicles" "Misc. UI" "Ornaments"  ;
	setAttr ".otfva" -type "Int32Array" 22 0 1 1 1 1 1
		 1 1 1 0 0 0 0 0 0 0 0 0
		 0 0 0 0 ;
	setAttr ".fprt" yes;
select -ne :renderPartition;
	setAttr -s 2 ".st";
select -ne :renderGlobalsList1;
select -ne :defaultShaderList1;
	setAttr -s 5 ".s";
select -ne :postProcessList1;
	setAttr -s 2 ".p";
select -ne :defaultRenderingList1;
select -ne :initialShadingGroup;
	setAttr -s 2 ".dsm";
	setAttr ".ro" yes;
select -ne :initialParticleSE;
	setAttr ".ro" yes;
select -ne :defaultRenderGlobals;
	addAttr -ci true -h true -sn "dss" -ln "defaultSurfaceShader" -dt "string";
	setAttr ".ren" -type "string" "arnold";
	setAttr ".dss" -type "string" "lambert1";
select -ne :defaultResolution;
	setAttr ".pa" 1;
select -ne :defaultColorMgtGlobals;
	setAttr ".cfe" yes;
	setAttr ".cfp" -type "string" "<MAYA_RESOURCES>/OCIO-configs/Maya2022-default/config.ocio";
	setAttr ".vtn" -type "string" "ACES 1.0 SDR-video (sRGB)";
	setAttr ".vn" -type "string" "ACES 1.0 SDR-video";
	setAttr ".dn" -type "string" "sRGB";
	setAttr ".wsn" -type "string" "ACEScg";
	setAttr ".otn" -type "string" "ACES 1.0 SDR-video (sRGB)";
	setAttr ".potn" -type "string" "ACES 1.0 SDR-video (sRGB)";
select -ne :hardwareRenderGlobals;
	setAttr ".ctrs" 256;
	setAttr ".btrs" 512;
connectAttr "groupId6.id" "polySurfaceShape1.iog.og[0].gid";
connectAttr ":initialShadingGroup.mwc" "polySurfaceShape1.iog.og[0].gco";
connectAttr "groupId5.id" "polySurfaceShape1.ciog.cog[0].cgid";
relationship "link" ":lightLinker1" ":initialShadingGroup.message" ":defaultLightSet.message";
relationship "link" ":lightLinker1" ":initialParticleSE.message" ":defaultLightSet.message";
relationship "shadowLink" ":lightLinker1" ":initialShadingGroup.message" ":defaultLightSet.message";
relationship "shadowLink" ":lightLinker1" ":initialParticleSE.message" ":defaultLightSet.message";
connectAttr "layerManager.dli[0]" "defaultLayer.id";
connectAttr "renderLayerManager.rlmi[0]" "defaultRenderLayer.rlid";
connectAttr ":defaultArnoldDisplayDriver.msg" ":defaultArnoldRenderOptions.drivers"
		 -na;
connectAttr ":defaultArnoldFilter.msg" ":defaultArnoldRenderOptions.filt";
connectAttr ":defaultArnoldDriver.msg" ":defaultArnoldRenderOptions.drvr";
connectAttr "defaultRenderLayer.msg" ":defaultRenderingList1.r" -na;
connectAttr "polySurfaceShape1.ciog.cog[0]" ":initialShadingGroup.dsm" -na;
connectAttr "polySurfaceShape1.iog.og[0]" ":initialShadingGroup.dsm" -na;
connectAttr "groupId6.msg" ":initialShadingGroup.gn" -na;
// End of block3.ma
